<?xml version="1.0" encoding="utf-8"?>
<!-- Generator: Adobe Illustrator 16.0.3, SVG Export Plug-In . SVG Version: 6.00 Build 0)  -->
<!DOCTYPE svg PUBLIC "-//W3C//DTD SVG 1.1//EN" "http://www.w3.org/Graphics/SVG/1.1/DTD/svg11.dtd">
<svg version="1.1" id="градусная_сеть"
	 xmlns="http://www.w3.org/2000/svg" xmlns:xlink="http://www.w3.org/1999/xlink" x="0px" y="0px" width="988px" height="626.62px"
	 viewBox="0 0 988 626.62" enable-background="new 0 0 988 626.62" xml:space="preserve">
<g>
	
		<path fill-rule="evenodd" clip-rule="evenodd" fill="none" stroke="#44C8F5" stroke-width="0.4252" stroke-linejoin="round" stroke-miterlimit="3.8637" d="
		M16.175,546.175c14.904,11.641,45.129,35.485,47.743,37.809c3.388,3.012,23.208,16.78,30.403,21.587
		c3.673,2.453,8.598,5.64,13.126,8.543"/>
	
		<path fill-rule="evenodd" clip-rule="evenodd" fill="none" stroke="#44C8F5" stroke-width="0.4252" stroke-linejoin="round" stroke-miterlimit="3.8637" d="
		M16.143,363.926c8.664,10.114,21.024,24.079,23.154,26.551c9.999,11.599,89.026,87.521,127.823,109.518
		c14.683,8.325,54.382,39.99,107.976,59.188c10.926,3.913,40.416,16.047,46.815,18.401c2.794,1.027,27.694,8.83,31.2,10.012
		c3.508,1.182,32.604,8.845,37.571,9.982c8.817,2.02,48.408,11.206,54.011,12.003c5.062,0.719,33.934,3.411,44.187,4.512"/>
	
		<path fill-rule="evenodd" clip-rule="evenodd" fill="none" stroke="#44C8F5" stroke-width="0.4252" stroke-linejoin="round" stroke-miterlimit="3.8637" d="
		M979.873,288.921c-0.381,0.484-5.168,6.665-5.578,7.177c-15.422,19.292-51.694,58.834-128.059,110.392
		c-11.632,7.853-94.282,59.551-213.137,78.158c-19.103,2.99-68.186,6.399-81.917,6.058s-31.655-0.683-38.055-1.024l-6.866-0.509
		c-49.194-4-104.859-17.776-118.787-22.397c-87.992-29.197-132.982-61.924-148.386-71.192
		c-45.195-27.197-107.752-94.898-121.588-111.588c-19.465-23.482-50.937-71.697-63.569-96.167c0,0-20.398-44.595-21.198-46.995
		l-1.4-3.2c-4.208-10.646-10.067-27.447-15.116-45.213"/>
	
		<polyline fill-rule="evenodd" clip-rule="evenodd" fill="none" stroke="#44C8F5" stroke-width="0.4252" stroke-linejoin="round" stroke-miterlimit="3.8637" points="
		979.674,282.321 973.357,276.956 642.605,11.576 	"/>
	
		<line fill-rule="evenodd" clip-rule="evenodd" fill="none" stroke="#44C8F5" stroke-width="0.4252" stroke-linejoin="round" stroke-miterlimit="3.8637" x1="970.111" y1="554.491" x2="600.527" y2="11.574"/>
	
		<line fill-rule="evenodd" clip-rule="evenodd" fill="none" stroke="#44C8F5" stroke-width="0.4252" stroke-linejoin="round" stroke-miterlimit="3.8637" x1="760.104" y1="614.111" x2="573.158" y2="11.55"/>
	
		<line fill-rule="evenodd" clip-rule="evenodd" fill="none" stroke="#44C8F5" stroke-width="0.4252" stroke-linejoin="round" stroke-miterlimit="3.8637" x1="551.502" y1="613.948" x2="550.075" y2="11.563"/>
	
		<line fill-rule="evenodd" clip-rule="evenodd" fill="none" stroke="#44C8F5" stroke-width="0.4252" stroke-linejoin="round" stroke-miterlimit="3.8637" x1="340.648" y1="614.108" x2="528.796" y2="11.52"/>
	
		<line fill-rule="evenodd" clip-rule="evenodd" fill="none" stroke="#44C8F5" stroke-width="0.4252" stroke-linejoin="round" stroke-miterlimit="3.8637" x1="88.697" y1="614.134" x2="500.688" y2="11.499"/>
	
		<path fill-rule="evenodd" clip-rule="evenodd" fill="none" stroke="#44C8F5" stroke-width="0.4252" stroke-linejoin="round" stroke-miterlimit="3.8637" d="
		M396.322,11.56c7.02,15.872,41.316,71.915,106.867,89.562c17.186,4.627,52.502,8.612,72.605,4.627
		c13.067-2.59,41.777-8.813,70.695-26.503c4.685-2.865,32.359-20.405,51.558-55.419c2.239-4.083,4.536-8.835,6.128-12.239"/>
	
		<path fill-rule="evenodd" clip-rule="evenodd" fill="none" stroke="#44C8F5" stroke-width="0.4252" stroke-linejoin="round" stroke-miterlimit="3.8637" stroke-dasharray="4,4" d="
		M216.607,11.367c1.516,8.479,3.986,18.719,7.333,29.091c5.068,15.71,11.954,31.904,18.334,45.516
		c4.63,9.875,9.924,17.577,12.848,23.308c12.548,24.592,39.402,57.846,62.234,78.804c6.148,5.644,49.938,42.029,84.951,57.594
		c11.336,5.039,48.933,22.329,101.133,30.236c5.669,0.859,68.13,11.491,147.94-11.088c5.202-1.472,80.475-25.295,131.67-75.283
		c6.17-6.024,55.783-50.228,84.7-123.7c2.468-6.269,11.632-26.812,16.917-54.176"/>
	
		<path fill-rule="evenodd" clip-rule="evenodd" fill="none" stroke="#44C8F5" stroke-width="0.4252" stroke-linejoin="round" stroke-miterlimit="3.8637" d="
		M130.652,11.314c1.418,12.672,7.707,47.681,22.779,83.088c9.56,22.459,32.055,69.348,63.993,109.188
		c15.648,19.52,51.358,57.925,93.19,85.991c24.274,16.286,71.425,38.456,114.389,52.795c19.798,6.607,72.144,17.257,126.787,18.397
		c19.141,0.399,70.032,0.81,124.787-17.998c72.93-25.05,155.472-76.854,205.72-137.092c2.229-2.671,45.821-49.828,74.401-140.443
		c3.679-11.664,7.23-25.871,8.211-29.056c0.979-3.186,4.193-21.62,4.929-24.589"/>
	
		<path fill-rule="evenodd" clip-rule="evenodd" fill="none" stroke="#44C8F5" stroke-width="0.4252" stroke-linejoin="round" stroke-miterlimit="3.8637" d="
		M839,11.663c-3.282,15.092-11.782,46.517-30.654,76.458c-5.015,7.957-36.887,60.914-90.496,96.292
		c-6.542,4.317-63.39,49.021-167.953,50.591l-21.918-0.616l-23.784-2.514c-24.34-3.269-55.583-12.799-82.688-25.849
		s-76.954-46.747-104.149-82.688c-5.445-7.196-11.408-14.52-17.04-23.016c-6.74-10.171-12.57-21.89-18.438-34.152
		c-7.899-16.51-15.144-34.487-19.176-54.733"/>
	
		<line fill-rule="evenodd" clip-rule="evenodd" fill="none" stroke="#44C8F5" stroke-width="0.7087" stroke-linejoin="round" stroke-miterlimit="3.8637" x1="969.768" y1="105.855" x2="734.054" y2="11.622"/>
	
		<line fill-rule="evenodd" clip-rule="evenodd" fill="none" stroke="#44C8F5" stroke-width="0.4252" stroke-linejoin="round" stroke-miterlimit="3.8637" x1="16.133" y1="364.575" x2="459.602" y2="11.454"/>
	
		<line fill-rule="evenodd" clip-rule="evenodd" fill="none" stroke="#44C8F5" stroke-width="0.4252" stroke-linejoin="round" stroke-miterlimit="3.8637" x1="16.18" y1="148.194" x2="364.061" y2="11.356"/>
	
		<polyline fill-rule="evenodd" clip-rule="evenodd" fill="none" stroke="#44C8F5" stroke-width="0.4252" stroke-linejoin="round" stroke-miterlimit="3.8637" points="
		446.624,614.149 525.9,105.344 539.646,11.563 	"/>
	
		<line fill-rule="evenodd" clip-rule="evenodd" fill="none" stroke="#44C8F5" stroke-width="0.4252" stroke-linejoin="round" stroke-miterlimit="3.8637" x1="223.855" y1="614.146" x2="516.176" y2="11.545"/>
	
		<line fill-rule="evenodd" clip-rule="evenodd" fill="none" stroke="#44C8F5" stroke-width="0.4252" stroke-linejoin="round" stroke-miterlimit="3.8637" x1="16.123" y1="512.505" x2="482.914" y2="11.536"/>
	
		<line fill-rule="evenodd" clip-rule="evenodd" fill="none" stroke="#44C8F5" stroke-width="0.4252" stroke-linejoin="round" stroke-miterlimit="3.8637" x1="653.838" y1="614.13" x2="561.01" y2="11.521"/>
	
		<line fill-rule="evenodd" clip-rule="evenodd" fill="none" stroke="#44C8F5" stroke-width="0.4252" stroke-linejoin="round" stroke-miterlimit="3.8637" x1="876.071" y1="614.122" x2="585.805" y2="11.602"/>
	
		<polyline fill-rule="evenodd" clip-rule="evenodd" fill="none" stroke="#44C8F5" stroke-width="0.4252" stroke-linejoin="round" stroke-miterlimit="3.8637" points="
		979.873,402.321 973.715,395.481 617.664,11.536 	"/>
	
		<line fill-rule="evenodd" clip-rule="evenodd" fill="none" stroke="#44C8F5" stroke-width="0.4252" stroke-linejoin="round" stroke-miterlimit="3.8637" x1="970.114" y1="182.833" x2="677.17" y2="11.523"/>
	
		<line fill-rule="evenodd" clip-rule="evenodd" fill="none" stroke="#44C8F5" stroke-width="0.4252" stroke-linejoin="round" stroke-miterlimit="3.8637" x1="970.085" y1="37.526" x2="861.186" y2="11.589"/>
	
		<line fill-rule="evenodd" clip-rule="evenodd" fill="none" stroke="#44C8F5" stroke-width="0.4252" stroke-linejoin="round" stroke-miterlimit="3.8637" x1="16.265" y1="247.388" x2="424.759" y2="11.443"/>
	
		<line fill-rule="evenodd" clip-rule="evenodd" fill="none" stroke="#44C8F5" stroke-width="0.4252" stroke-linejoin="round" stroke-miterlimit="3.8637" x1="16.272" y1="61.999" x2="236.305" y2="11.354"/>
	
		<path fill-rule="evenodd" clip-rule="evenodd" fill="none" stroke="#44C8F5" stroke-width="0.4252" stroke-linejoin="round" stroke-miterlimit="3.8637" d="
		M970.111,470.105c0,0-34.759,27.454-37.559,29.453c-1.48,1.058-27.34,18.296-51.795,32.396
		c-21.801,12.571-42.428,22.161-44.596,23.198c-2.615,1.021-5.128,2.213-7.815,3.175c-10.925,3.913-40.415,16.048-46.815,18.401
		c-2.793,1.028-27.693,8.83-31.2,10.012s-32.603,8.845-37.571,9.982c-8.816,2.021-48.407,11.207-54.01,12.003
		c-5.062,0.72-33.935,3.411-44.187,4.513"/>
</g>
<g id="Layer_57">
	<g>
		
			<rect x="887.347" y="12.067" transform="matrix(-0.2612 0.9653 -0.9653 -0.2612 1131.9763 -840.0792)" fill-rule="evenodd" clip-rule="evenodd" fill="#00C0F3" width="0.258" height="2.173"/>
		
			<rect x="885.209" y="11.901" transform="matrix(0.9656 0.2599 -0.2599 0.9656 33.7426 -229.6607)" fill-rule="evenodd" clip-rule="evenodd" fill="#00C0F3" width="0.383" height="1.752"/>
		
			<rect x="883.285" y="10.978" transform="matrix(-0.2577 0.9662 -0.9662 -0.2577 1122.6929 -838.4126)" fill-rule="evenodd" clip-rule="evenodd" fill="#00C0F3" width="0.258" height="2.173"/>
	</g>
	<g>
		<path fill-rule="evenodd" clip-rule="evenodd" fill="#00C0F3" d="M7.353,545.532c0.015,0.302,0.134,1.346,1.28,1.346
			c0.812,0,1.32-0.494,1.32-1.225c0-0.621-0.331-0.901-0.618-0.989v-0.017c0.321-0.088,0.51-0.39,0.51-0.785
			c0-0.747-0.599-1.049-1.177-1.049c-0.277,0-1.107,0.043-1.246,1.213h0.865c-0.01-0.23,0.163-0.406,0.371-0.406
			c0.129,0,0.341,0.066,0.341,0.406c0,0.407-0.316,0.43-0.396,0.43H8.495v0.658h0.108c0.178,0,0.484,0.012,0.484,0.424
			c0,0.181-0.039,0.532-0.435,0.532c-0.376,0-0.44-0.352-0.436-0.538H7.353z"/>
		<path fill-rule="evenodd" clip-rule="evenodd" fill="#00C0F3" d="M11.638,546.878c0.341,0,1.315-0.088,1.315-2.032
			s-0.975-2.032-1.315-2.032s-1.315,0.088-1.315,2.032S11.297,546.878,11.638,546.878z M11.638,546.07
			c-0.425,0-0.436-0.726-0.436-1.225c0-0.5,0.011-1.226,0.436-1.226s0.435,0.726,0.435,1.226
			C12.072,545.345,12.063,546.07,11.638,546.07z"/>
		<path fill-rule="evenodd" clip-rule="evenodd" fill="#00C0F3" d="M13.648,543.758c0,0.467,0.331,0.835,0.751,0.835
			s0.752-0.368,0.752-0.835s-0.332-0.835-0.752-0.835S13.648,543.291,13.648,543.758z M13.994,543.758
			c0-0.28,0.173-0.473,0.405-0.473s0.405,0.192,0.405,0.473s-0.173,0.473-0.405,0.473S13.994,544.038,13.994,543.758z"/>
	</g>
	<g>
		<polygon fill-rule="evenodd" clip-rule="evenodd" fill="#00C0F3" points="260.2,10.031 261.238,10.031 262.83,6.186 
			260.091,6.186 260.091,7.07 261.505,7.07 		"/>
		<path fill-rule="evenodd" clip-rule="evenodd" fill="#00C0F3" d="M264.307,10.141c0.341,0,1.314-0.088,1.314-2.032
			s-0.974-2.032-1.314-2.032s-1.315,0.088-1.315,2.032S263.966,10.141,264.307,10.141z M264.307,9.333
			c-0.426,0-0.436-0.725-0.436-1.225s0.01-1.225,0.436-1.225c0.425,0,0.435,0.725,0.435,1.225S264.731,9.333,264.307,9.333z"/>
		<path fill-rule="evenodd" clip-rule="evenodd" fill="#00C0F3" d="M266.317,7.021c0,0.467,0.331,0.835,0.751,0.835
			s0.752-0.368,0.752-0.835c0-0.467-0.332-0.835-0.752-0.835S266.317,6.554,266.317,7.021z M266.663,7.021
			c0-0.28,0.173-0.472,0.405-0.472s0.405,0.192,0.405,0.472c0,0.28-0.173,0.473-0.405,0.473S266.663,7.301,266.663,7.021z"/>
	</g>
	<g>
		<path fill-rule="evenodd" clip-rule="evenodd" fill="#00C0F3" d="M363.992,9.185h-1.019c0.781-0.89,1.058-1.258,1.058-1.829
			c0-0.648-0.395-1.28-1.26-1.28c-1.053,0-1.306,0.906-1.32,1.461h0.865c0-0.154,0.029-0.654,0.43-0.654
			c0.272,0,0.421,0.248,0.421,0.5c0,0.225-0.095,0.39-0.405,0.791l-1.434,1.857h2.664V9.185z"/>
		<path fill-rule="evenodd" clip-rule="evenodd" fill="#00C0F3" d="M365.716,10.141c0.341,0,1.315-0.088,1.315-2.032
			s-0.975-2.032-1.315-2.032s-1.314,0.088-1.314,2.032S365.375,10.141,365.716,10.141z M365.716,9.333
			c-0.425,0-0.435-0.725-0.435-1.225s0.01-1.225,0.435-1.225c0.426,0,0.436,0.725,0.436,1.225S366.142,9.333,365.716,9.333z"/>
		<path fill-rule="evenodd" clip-rule="evenodd" fill="#00C0F3" d="M367.727,7.021c0,0.467,0.331,0.835,0.752,0.835
			c0.42,0,0.751-0.368,0.751-0.835c0-0.467-0.331-0.835-0.751-0.835C368.058,6.186,367.727,6.554,367.727,7.021z M368.072,7.021
			c0-0.28,0.174-0.472,0.406-0.472s0.405,0.192,0.405,0.472c0,0.28-0.173,0.473-0.405,0.473S368.072,7.301,368.072,7.021z"/>
	</g>
	<g>
		<path fill-rule="evenodd" clip-rule="evenodd" fill="#00C0F3" d="M394.465,7.987c0.268-0.109,0.5-0.384,0.5-0.851
			c0-0.571-0.381-1.06-1.177-1.06s-1.177,0.489-1.177,1.06c0,0.467,0.232,0.742,0.499,0.851v0.011
			c-0.228,0.071-0.657,0.302-0.657,0.978c0,0.368,0.148,1.164,1.335,1.164s1.335-0.796,1.335-1.164c0-0.676-0.431-0.907-0.658-0.978
			V7.987z M393.788,7.664c-0.153,0-0.356-0.104-0.356-0.412c0-0.346,0.232-0.417,0.356-0.417c0.128,0,0.36,0.077,0.36,0.417
			C394.148,7.548,393.961,7.664,393.788,7.664z M393.788,9.333c-0.277,0-0.431-0.242-0.431-0.495c0-0.296,0.203-0.483,0.431-0.483
			c0.158,0,0.435,0.11,0.435,0.483C394.223,9.092,394.074,9.333,393.788,9.333z"/>
		<path fill-rule="evenodd" clip-rule="evenodd" fill="#00C0F3" d="M396.737,10.141c0.342,0,1.315-0.088,1.315-2.032
			s-0.974-2.032-1.315-2.032c-0.341,0-1.314,0.088-1.314,2.032S396.396,10.141,396.737,10.141z M396.737,9.333
			c-0.425,0-0.435-0.725-0.435-1.225s0.01-1.225,0.435-1.225c0.426,0,0.436,0.725,0.436,1.225S397.163,9.333,396.737,9.333z"/>
		<path fill-rule="evenodd" clip-rule="evenodd" fill="#00C0F3" d="M398.748,7.021c0,0.467,0.331,0.835,0.752,0.835
			c0.42,0,0.751-0.368,0.751-0.835c0-0.467-0.331-0.835-0.751-0.835C399.079,6.186,398.748,6.554,398.748,7.021z M399.094,7.021
			c0-0.28,0.174-0.472,0.406-0.472s0.405,0.192,0.405,0.472c0,0.28-0.173,0.473-0.405,0.473S399.094,7.301,399.094,7.021z"/>
	</g>
	<g>
		<path fill-rule="evenodd" clip-rule="evenodd" fill="#00C0F3" d="M458.579,10.031h0.831V9.108h0.386V8.301h-0.386V6.186h-1.143
			l-1.245,2.132v0.791h1.557V10.031z M458.579,8.301h-0.766l0.766-1.346V8.301z"/>
		<path fill-rule="evenodd" clip-rule="evenodd" fill="#00C0F3" d="M461.376,10.141c0.341,0,1.315-0.088,1.315-2.032
			s-0.975-2.032-1.315-2.032s-1.315,0.088-1.315,2.032S461.035,10.141,461.376,10.141z M461.376,9.333
			c-0.425,0-0.435-0.725-0.435-1.225s0.01-1.225,0.435-1.225s0.435,0.725,0.435,1.225S461.801,9.333,461.376,9.333z"/>
		<path fill-rule="evenodd" clip-rule="evenodd" fill="#00C0F3" d="M463.387,7.021c0,0.467,0.331,0.835,0.751,0.835
			c0.421,0,0.752-0.368,0.752-0.835c0-0.467-0.331-0.835-0.752-0.835C463.718,6.186,463.387,6.554,463.387,7.021z M463.732,7.021
			c0-0.28,0.173-0.472,0.405-0.472s0.405,0.192,0.405,0.472c0,0.28-0.173,0.473-0.405,0.473S463.732,7.301,463.732,7.021z"/>
	</g>
	<g>
		<path fill-rule="evenodd" clip-rule="evenodd" fill="#00C0F3" d="M499.799,6.186l-0.791,1.28c-0.262,0.423-0.381,0.796-0.381,1.28
			c0,0.846,0.529,1.395,1.325,1.395c0.89,0,1.345-0.653,1.345-1.395c0-0.736-0.416-1.263-1.033-1.263
			c-0.124,0-0.208,0.021-0.287,0.049l0.846-1.346H499.799z M499.942,9.333c-0.307,0-0.484-0.253-0.484-0.577
			c0-0.313,0.178-0.571,0.484-0.571c0.316,0,0.489,0.269,0.489,0.571C500.432,9.081,500.238,9.333,499.942,9.333z"/>
		<path fill-rule="evenodd" clip-rule="evenodd" fill="#00C0F3" d="M502.912,10.141c0.341,0,1.314-0.088,1.314-2.032
			s-0.974-2.032-1.314-2.032c-0.342,0-1.315,0.088-1.315,2.032S502.57,10.141,502.912,10.141z M502.912,9.333
			c-0.426,0-0.436-0.725-0.436-1.225s0.01-1.225,0.436-1.225c0.425,0,0.435,0.725,0.435,1.225S503.337,9.333,502.912,9.333z"/>
		<path fill-rule="evenodd" clip-rule="evenodd" fill="#00C0F3" d="M504.922,7.021c0,0.467,0.332,0.835,0.752,0.835
			s0.752-0.368,0.752-0.835c0-0.467-0.332-0.835-0.752-0.835S504.922,6.554,504.922,7.021z M505.269,7.021
			c0-0.28,0.173-0.472,0.405-0.472s0.405,0.192,0.405,0.472c0,0.28-0.173,0.473-0.405,0.473S505.269,7.301,505.269,7.021z"/>
	</g>
	<g>
		<path fill-rule="evenodd" clip-rule="evenodd" fill="#00C0F3" d="M528.736,7.987c0.267-0.109,0.499-0.384,0.499-0.851
			c0-0.571-0.38-1.06-1.177-1.06c-0.796,0-1.176,0.489-1.176,1.06c0,0.467,0.232,0.742,0.499,0.851v0.011
			c-0.228,0.071-0.657,0.302-0.657,0.978c0,0.368,0.147,1.164,1.334,1.164s1.335-0.796,1.335-1.164c0-0.676-0.43-0.907-0.657-0.978
			V7.987z M528.059,7.664c-0.152,0-0.355-0.104-0.355-0.412c0-0.346,0.232-0.417,0.355-0.417c0.129,0,0.361,0.077,0.361,0.417
			C528.42,7.548,528.232,7.664,528.059,7.664z M528.059,9.333c-0.276,0-0.43-0.242-0.43-0.495c0-0.296,0.203-0.483,0.43-0.483
			c0.158,0,0.436,0.11,0.436,0.483C528.494,9.092,528.346,9.333,528.059,9.333z"/>
		<path fill-rule="evenodd" clip-rule="evenodd" fill="#00C0F3" d="M531.009,10.141c0.341,0,1.315-0.088,1.315-2.032
			s-0.975-2.032-1.315-2.032s-1.315,0.088-1.315,2.032S530.668,10.141,531.009,10.141z M531.009,9.333
			c-0.425,0-0.435-0.725-0.435-1.225s0.01-1.225,0.435-1.225s0.435,0.725,0.435,1.225S531.434,9.333,531.009,9.333z"/>
		<path fill-rule="evenodd" clip-rule="evenodd" fill="#00C0F3" d="M533.02,7.021c0,0.467,0.331,0.835,0.751,0.835
			c0.421,0,0.752-0.368,0.752-0.835c0-0.467-0.331-0.835-0.752-0.835C533.351,6.186,533.02,6.554,533.02,7.021z M533.365,7.021
			c0-0.28,0.173-0.472,0.405-0.472s0.405,0.192,0.405,0.472c0,0.28-0.173,0.473-0.405,0.473S533.365,7.301,533.365,7.021z"/>
	</g>
	<g>
		<polygon fill-rule="evenodd" clip-rule="evenodd" fill="#00C0F3" points="546.916,10.031 547.811,10.031 547.811,6.186 
			546.387,6.186 546.387,7.07 546.916,7.07 		"/>
		<path fill-rule="evenodd" clip-rule="evenodd" fill="#00C0F3" d="M550.117,10.141c0.342,0,1.315-0.088,1.315-2.032
			s-0.974-2.032-1.315-2.032c-0.341,0-1.314,0.088-1.314,2.032S549.776,10.141,550.117,10.141z M550.117,9.333
			c-0.425,0-0.435-0.725-0.435-1.225s0.01-1.225,0.435-1.225c0.426,0,0.436,0.725,0.436,1.225S550.543,9.333,550.117,9.333z"/>
		<path fill-rule="evenodd" clip-rule="evenodd" fill="#00C0F3" d="M553.067,10.141c0.341,0,1.315-0.088,1.315-2.032
			s-0.975-2.032-1.315-2.032s-1.315,0.088-1.315,2.032S552.727,10.141,553.067,10.141z M553.067,9.333
			c-0.425,0-0.435-0.725-0.435-1.225s0.01-1.225,0.435-1.225s0.435,0.725,0.435,1.225S553.492,9.333,553.067,9.333z"/>
		<path fill-rule="evenodd" clip-rule="evenodd" fill="#00C0F3" d="M555.078,7.021c0,0.467,0.331,0.835,0.751,0.835
			c0.421,0,0.752-0.368,0.752-0.835c0-0.467-0.331-0.835-0.752-0.835C555.409,6.186,555.078,6.554,555.078,7.021z M555.424,7.021
			c0-0.28,0.173-0.472,0.405-0.472s0.405,0.192,0.405,0.472c0,0.28-0.173,0.473-0.405,0.473S555.424,7.301,555.424,7.021z"/>
	</g>
	<g>
		<polygon fill-rule="evenodd" clip-rule="evenodd" fill="#00C0F3" points="570.297,10.031 571.191,10.031 571.191,6.186 
			569.768,6.186 569.768,7.07 570.297,7.07 		"/>
		<path fill-rule="evenodd" clip-rule="evenodd" fill="#00C0F3" d="M574.725,9.185h-1.019c0.781-0.89,1.058-1.258,1.058-1.829
			c0-0.648-0.395-1.28-1.26-1.28c-1.054,0-1.306,0.906-1.32,1.461h0.865c0-0.154,0.029-0.654,0.43-0.654
			c0.271,0,0.42,0.248,0.42,0.5c0,0.225-0.094,0.39-0.405,0.791l-1.434,1.857h2.665V9.185z"/>
		<path fill-rule="evenodd" clip-rule="evenodd" fill="#00C0F3" d="M576.448,10.141c0.341,0,1.315-0.088,1.315-2.032
			s-0.975-2.032-1.315-2.032s-1.315,0.088-1.315,2.032S576.107,10.141,576.448,10.141z M576.448,9.333
			c-0.425,0-0.435-0.725-0.435-1.225s0.01-1.225,0.435-1.225s0.435,0.725,0.435,1.225S576.873,9.333,576.448,9.333z"/>
		<path fill-rule="evenodd" clip-rule="evenodd" fill="#00C0F3" d="M578.459,7.021c0,0.467,0.331,0.835,0.751,0.835
			c0.421,0,0.752-0.368,0.752-0.835c0-0.467-0.331-0.835-0.752-0.835C578.79,6.186,578.459,6.554,578.459,7.021z M578.805,7.021
			c0-0.28,0.173-0.472,0.405-0.472s0.405,0.192,0.405,0.472c0,0.28-0.173,0.473-0.405,0.473S578.805,7.301,578.805,7.021z"/>
	</g>
	<g>
		<polygon fill-rule="evenodd" clip-rule="evenodd" fill="#00C0F3" points="596.141,10.031 597.035,10.031 597.035,6.186 
			595.611,6.186 595.611,7.07 596.141,7.07 		"/>
		<path fill-rule="evenodd" clip-rule="evenodd" fill="#00C0F3" d="M599.496,10.031h0.83V9.108h0.386V8.301h-0.386V6.186h-1.142
			l-1.246,2.132v0.791h1.558V10.031z M599.496,8.301h-0.767l0.767-1.346V8.301z"/>
		<path fill-rule="evenodd" clip-rule="evenodd" fill="#00C0F3" d="M602.293,10.141c0.341,0,1.314-0.088,1.314-2.032
			s-0.974-2.032-1.314-2.032c-0.342,0-1.315,0.088-1.315,2.032S601.951,10.141,602.293,10.141z M602.293,9.333
			c-0.426,0-0.436-0.725-0.436-1.225s0.01-1.225,0.436-1.225c0.425,0,0.435,0.725,0.435,1.225S602.718,9.333,602.293,9.333z"/>
		<path fill-rule="evenodd" clip-rule="evenodd" fill="#00C0F3" d="M604.303,7.021c0,0.467,0.332,0.835,0.752,0.835
			s0.751-0.368,0.751-0.835c0-0.467-0.331-0.835-0.751-0.835S604.303,6.554,604.303,7.021z M604.649,7.021
			c0-0.28,0.173-0.472,0.405-0.472s0.405,0.192,0.405,0.472c0,0.28-0.173,0.473-0.405,0.473S604.649,7.301,604.649,7.021z"/>
	</g>
	<g>
		<polygon fill-rule="evenodd" clip-rule="evenodd" fill="#00C0F3" points="639.032,10.031 639.927,10.031 639.927,6.186 
			638.503,6.186 638.503,7.07 639.032,7.07 		"/>
		<path fill-rule="evenodd" clip-rule="evenodd" fill="#00C0F3" d="M642.07,6.186l-0.791,1.28c-0.262,0.423-0.38,0.796-0.38,1.28
			c0,0.846,0.528,1.395,1.325,1.395c0.89,0,1.344-0.653,1.344-1.395c0-0.736-0.415-1.263-1.033-1.263
			c-0.123,0-0.207,0.021-0.286,0.049l0.845-1.346H642.07z M642.215,9.333c-0.307,0-0.485-0.253-0.485-0.577
			c0-0.313,0.179-0.571,0.485-0.571c0.316,0,0.488,0.269,0.488,0.571C642.703,9.081,642.511,9.333,642.215,9.333z"/>
		<path fill-rule="evenodd" clip-rule="evenodd" fill="#00C0F3" d="M645.184,10.141c0.342,0,1.315-0.088,1.315-2.032
			s-0.974-2.032-1.315-2.032c-0.341,0-1.314,0.088-1.314,2.032S644.843,10.141,645.184,10.141z M645.184,9.333
			c-0.425,0-0.435-0.725-0.435-1.225s0.01-1.225,0.435-1.225c0.426,0,0.436,0.725,0.436,1.225S645.609,9.333,645.184,9.333z"/>
		<path fill-rule="evenodd" clip-rule="evenodd" fill="#00C0F3" d="M647.194,7.021c0,0.467,0.331,0.835,0.751,0.835
			c0.421,0,0.752-0.368,0.752-0.835c0-0.467-0.331-0.835-0.752-0.835C647.525,6.186,647.194,6.554,647.194,7.021z M647.541,7.021
			c0-0.28,0.172-0.472,0.404-0.472s0.406,0.192,0.406,0.472c0,0.28-0.174,0.473-0.406,0.473S647.541,7.301,647.541,7.021z"/>
	</g>
	<g>
		<polygon fill-rule="evenodd" clip-rule="evenodd" fill="#00C0F3" points="671.098,10.031 671.963,10.031 671.963,8.855 
			672.739,10.031 673.832,10.031 672.759,8.625 673.742,7.378 672.685,7.378 671.963,8.46 671.963,7.378 671.098,7.378 		"/>
		<path fill-rule="evenodd" clip-rule="evenodd" fill="#00C0F3" d="M675.21,7.378v2.653h1.597c0.119,0,0.757-0.011,0.757-0.676
			c0-0.511-0.337-0.659-0.515-0.698V8.646c0.386-0.132,0.41-0.511,0.41-0.653c0-0.621-0.588-0.615-0.687-0.615H675.21z
			 M676.041,8.416V7.955h0.355c0.089,0,0.252,0.027,0.252,0.225c0,0.226-0.168,0.236-0.252,0.236H676.041z M676.041,9.454V8.938
			h0.381c0.147,0,0.276,0.083,0.276,0.264c0,0.132-0.074,0.252-0.276,0.252H676.041z"/>
		<path fill-rule="evenodd" clip-rule="evenodd" fill="#00C0F3" d="M679.283,10.13c0.988,0,1.429-0.67,1.429-1.428
			c0-0.747-0.44-1.423-1.429-1.423c-0.989,0-1.43,0.676-1.43,1.423C677.854,9.46,678.294,10.13,679.283,10.13z M679.283,9.438
			c-0.347,0-0.534-0.296-0.534-0.736c0-0.434,0.188-0.73,0.534-0.73c0.346,0,0.533,0.296,0.533,0.73
			C679.816,9.141,679.629,9.438,679.283,9.438z"/>
		<path fill-rule="evenodd" clip-rule="evenodd" fill="#00C0F3" d="M682.984,9.086c-0.218,0.214-0.4,0.264-0.534,0.264
			c-0.341,0-0.544-0.264-0.544-0.643c0-0.374,0.174-0.659,0.51-0.659c0.197,0,0.405,0.099,0.568,0.275V7.488
			c-0.271-0.143-0.494-0.209-0.756-0.209c-0.812,0-1.217,0.681-1.217,1.423c0,0.89,0.52,1.428,1.217,1.428
			c0.391,0,0.717-0.181,0.756-0.203V9.086z"/>
		<polygon fill-rule="evenodd" clip-rule="evenodd" fill="#00C0F3" points="683.793,10.031 684.658,10.031 684.658,8.07 
			685.281,8.07 685.281,7.378 683.17,7.378 683.17,8.07 683.793,8.07 		"/>
		<path fill-rule="evenodd" clip-rule="evenodd" fill="#00C0F3" d="M686.896,10.13c0.989,0,1.429-0.67,1.429-1.428
			c0-0.747-0.439-1.423-1.429-1.423s-1.429,0.676-1.429,1.423C685.467,9.46,685.906,10.13,686.896,10.13z M686.896,9.438
			c-0.347,0-0.534-0.296-0.534-0.736c0-0.434,0.188-0.73,0.534-0.73c0.346,0,0.534,0.296,0.534,0.73
			C687.43,9.141,687.241,9.438,686.896,9.438z"/>
		<polygon fill-rule="evenodd" clip-rule="evenodd" fill="#00C0F3" points="688.753,10.031 689.618,10.031 689.618,8.855 
			690.395,10.031 691.486,10.031 690.414,8.625 691.398,7.378 690.34,7.378 689.618,8.46 689.618,7.378 688.753,7.378 		"/>
		<polygon fill-rule="evenodd" clip-rule="evenodd" fill="#00C0F3" points="691.381,7.378 692.558,9.646 691.831,11.185 
			692.766,11.185 694.496,7.378 693.602,7.378 693.042,8.801 692.385,7.378 		"/>
		<path fill-rule="evenodd" clip-rule="evenodd" fill="#00C0F3" d="M697.175,10.13c0.989,0,1.429-0.67,1.429-1.428
			c0-0.747-0.439-1.423-1.429-1.423c-0.988,0-1.429,0.676-1.429,1.423C695.746,9.46,696.187,10.13,697.175,10.13z M697.175,9.438
			c-0.346,0-0.534-0.296-0.534-0.736c0-0.434,0.188-0.73,0.534-0.73c0.347,0,0.534,0.296,0.534,0.73
			C697.709,9.141,697.521,9.438,697.175,9.438z"/>
		<polygon fill-rule="evenodd" clip-rule="evenodd" fill="#00C0F3" points="699.413,10.031 700.278,10.031 700.278,8.07 
			700.901,8.07 700.901,7.378 698.79,7.378 698.79,8.07 699.413,8.07 		"/>
		<polygon fill-rule="evenodd" clip-rule="evenodd" fill="#00C0F3" points="702.402,10.031 703.372,10.031 703.372,7.108 
			704.479,7.108 704.479,6.186 702.402,6.186 		"/>
		<path fill-rule="evenodd" clip-rule="evenodd" fill="#00C0F3" d="M704.829,7.378v3.807h0.865V9.762
			c0.218,0.264,0.47,0.368,0.751,0.368c0.688,0,1.112-0.648,1.112-1.428c0-0.852-0.444-1.423-1.112-1.423
			c-0.346,0-0.573,0.132-0.786,0.423V7.378H704.829z M706.145,9.339c-0.366,0-0.52-0.318-0.52-0.637c0-0.313,0.153-0.632,0.52-0.632
			c0.306,0,0.519,0.248,0.519,0.632C706.663,9.092,706.45,9.339,706.145,9.339z"/>
		<polygon fill-rule="evenodd" clip-rule="evenodd" fill="#00C0F3" points="707.986,7.378 707.986,10.031 708.827,10.031 
			709.683,8.57 709.683,10.031 710.547,10.031 710.547,7.378 709.717,7.378 708.852,8.801 708.852,7.378 		"/>
		<polygon fill-rule="evenodd" clip-rule="evenodd" fill="#00C0F3" points="711.104,10.031 711.97,10.031 711.97,8.971 
			712.766,8.971 712.766,10.031 713.631,10.031 713.631,7.378 712.766,7.378 712.766,8.312 711.97,8.312 711.97,7.378 
			711.104,7.378 		"/>
		<path fill-rule="evenodd" clip-rule="evenodd" fill="#00C0F3" d="M714.189,7.378v2.653h1.597c0.118,0,0.757-0.011,0.757-0.676
			c0-0.511-0.337-0.659-0.515-0.698V8.646c0.386-0.132,0.41-0.511,0.41-0.653c0-0.621-0.588-0.615-0.687-0.615H714.189z
			 M715.02,8.416V7.955h0.356c0.089,0,0.252,0.027,0.252,0.225c0,0.226-0.168,0.236-0.252,0.236H715.02z M715.02,9.454V8.938h0.381
			c0.148,0,0.277,0.083,0.277,0.264c0,0.132-0.074,0.252-0.277,0.252H715.02z"/>
		<polygon fill-rule="evenodd" clip-rule="evenodd" fill="#00C0F3" points="716.962,7.378 716.962,10.031 717.803,10.031 
			718.657,8.57 718.657,10.031 719.522,10.031 719.522,7.378 718.692,7.378 717.827,8.801 717.827,7.378 		"/>
		<path fill-rule="evenodd" clip-rule="evenodd" fill="#00C0F3" d="M721.465,10.031h0.864V7.378h-0.864v1.131
			c-0.124,0.033-0.213,0.039-0.292,0.039c-0.179,0-0.331-0.033-0.331-0.33v-0.84h-0.831v1.055c0,0.533,0.276,0.774,0.885,0.774
			c0.139,0,0.381-0.005,0.569-0.039V10.031z"/>
		<path fill-rule="evenodd" clip-rule="evenodd" fill="#00C0F3" d="M724.651,7.702c-0.213-0.302-0.45-0.423-0.781-0.423
			c-0.791,0-1.112,0.752-1.112,1.423c0,0.896,0.504,1.428,1.112,1.428c0.351,0,0.613-0.17,0.781-0.412v0.313h0.831V7.378h-0.831
			V7.702z M724.167,9.339c-0.356,0-0.515-0.318-0.515-0.637c0-0.308,0.153-0.632,0.515-0.632c0.307,0,0.519,0.248,0.519,0.632
			C724.686,9.092,724.474,9.339,724.167,9.339z"/>
		<polygon fill-rule="evenodd" clip-rule="evenodd" fill="#00C0F3" points="729.289,10.031 730.185,10.031 730.185,6.186 
			728.761,6.186 728.761,7.07 729.289,7.07 		"/>
		<path fill-rule="evenodd" clip-rule="evenodd" fill="#00C0F3" d="M733.169,7.987c0.267-0.109,0.499-0.384,0.499-0.851
			c0-0.571-0.381-1.06-1.177-1.06s-1.177,0.489-1.177,1.06c0,0.467,0.232,0.742,0.5,0.851v0.011
			c-0.228,0.071-0.658,0.302-0.658,0.978c0,0.368,0.148,1.164,1.335,1.164s1.335-0.796,1.335-1.164c0-0.676-0.43-0.907-0.657-0.978
			V7.987z M732.491,7.664c-0.153,0-0.355-0.104-0.355-0.412c0-0.346,0.231-0.417,0.355-0.417c0.129,0,0.361,0.077,0.361,0.417
			C732.853,7.548,732.664,7.664,732.491,7.664z M732.491,9.333c-0.276,0-0.43-0.242-0.43-0.495c0-0.296,0.202-0.483,0.43-0.483
			c0.158,0,0.436,0.11,0.436,0.483C732.927,9.092,732.778,9.333,732.491,9.333z"/>
		<path fill-rule="evenodd" clip-rule="evenodd" fill="#00C0F3" d="M735.441,10.141c0.341,0,1.314-0.088,1.314-2.032
			s-0.974-2.032-1.314-2.032c-0.342,0-1.315,0.088-1.315,2.032S735.1,10.141,735.441,10.141z M735.441,9.333
			c-0.426,0-0.436-0.725-0.436-1.225s0.01-1.225,0.436-1.225c0.425,0,0.435,0.725,0.435,1.225S735.866,9.333,735.441,9.333z"/>
		<path fill-rule="evenodd" clip-rule="evenodd" fill="#00C0F3" d="M737.451,7.021c0,0.467,0.332,0.835,0.752,0.835
			s0.752-0.368,0.752-0.835c0-0.467-0.332-0.835-0.752-0.835S737.451,6.554,737.451,7.021z M737.798,7.021
			c0-0.28,0.173-0.472,0.405-0.472s0.405,0.192,0.405,0.472c0,0.28-0.173,0.473-0.405,0.473S737.798,7.301,737.798,7.021z"/>
		<polygon fill-rule="evenodd" clip-rule="evenodd" fill="#00C0F3" points="740.922,10.031 741.787,10.031 741.787,8.855 
			742.563,10.031 743.656,10.031 742.583,8.625 743.566,7.378 742.509,7.378 741.787,8.46 741.787,7.378 740.922,7.378 		"/>
		<path fill-rule="evenodd" clip-rule="evenodd" fill="#00C0F3" d="M745.178,8.136c0.184-0.132,0.43-0.225,0.643-0.225
			c0.109,0,0.346,0.017,0.346,0.242c0,0.22-0.207,0.225-0.291,0.225h-0.426v0.577h0.376c0.124,0,0.356,0.011,0.356,0.226
			c0,0.088-0.05,0.258-0.352,0.258c-0.301,0-0.494-0.088-0.746-0.252l-0.223,0.626c0.475,0.291,0.904,0.318,1.103,0.318
			c0.989,0,1.112-0.615,1.112-0.818c0-0.28-0.153-0.566-0.499-0.654V8.646c0.218-0.104,0.355-0.335,0.355-0.621
			c0-0.621-0.608-0.747-0.979-0.747c-0.347,0-0.747,0.11-1.009,0.264L745.178,8.136z"/>
		<path fill-rule="evenodd" clip-rule="evenodd" fill="#00C0F3" d="M749.26,7.702c-0.213-0.302-0.449-0.423-0.781-0.423
			c-0.791,0-1.111,0.752-1.111,1.423c0,0.896,0.504,1.428,1.111,1.428c0.352,0,0.613-0.17,0.781-0.412v0.313h0.831V7.378h-0.831
			V7.702z M748.775,9.339c-0.355,0-0.514-0.318-0.514-0.637c0-0.308,0.152-0.632,0.514-0.632c0.307,0,0.52,0.248,0.52,0.632
			C749.295,9.092,749.082,9.339,748.775,9.339z"/>
		<polygon fill-rule="evenodd" clip-rule="evenodd" fill="#00C0F3" points="750.648,7.378 750.648,10.031 751.514,10.031 
			751.514,8.037 752.274,8.037 752.274,10.031 753.14,10.031 753.14,7.378 		"/>
		<path fill-rule="evenodd" clip-rule="evenodd" fill="#00C0F3" d="M755.462,7.702c-0.213-0.302-0.45-0.423-0.781-0.423
			c-0.791,0-1.112,0.752-1.112,1.423c0,0.896,0.504,1.428,1.112,1.428c0.351,0,0.613-0.17,0.781-0.412v0.313h0.831V7.378h-0.831
			V7.702z M754.978,9.339c-0.356,0-0.515-0.318-0.515-0.637c0-0.308,0.153-0.632,0.515-0.632c0.307,0,0.519,0.248,0.519,0.632
			C755.496,9.092,755.284,9.339,754.978,9.339z"/>
		<path fill-rule="evenodd" clip-rule="evenodd" fill="#00C0F3" d="M757.161,7.378v1.005c0,0.17,0,0.319-0.05,0.517
			c-0.074,0.308-0.252,0.473-0.469,0.473V10.8h0.761v-0.769h1.522V10.8h0.762V9.372h-0.346V7.378H757.161z M758.511,9.372h-0.841
			c0.232-0.253,0.268-0.511,0.268-0.857V8.037h0.573V9.372z"/>
		<polygon fill-rule="evenodd" clip-rule="evenodd" fill="#00C0F3" points="759.707,7.378 760.884,9.646 760.156,11.185 
			761.091,11.185 762.821,7.378 761.927,7.378 761.368,8.801 760.711,7.378 		"/>
		<path fill-rule="evenodd" clip-rule="evenodd" fill="#00C0F3" d="M765.501,10.13c0.988,0,1.429-0.67,1.429-1.428
			c0-0.747-0.44-1.423-1.429-1.423c-0.989,0-1.429,0.676-1.429,1.423C764.072,9.46,764.512,10.13,765.501,10.13z M765.501,9.438
			c-0.347,0-0.534-0.296-0.534-0.736c0-0.434,0.188-0.73,0.534-0.73c0.346,0,0.534,0.296,0.534,0.73
			C766.035,9.141,765.847,9.438,765.501,9.438z"/>
		<polygon fill-rule="evenodd" clip-rule="evenodd" fill="#00C0F3" points="767.738,10.031 768.604,10.031 768.604,8.07 
			769.227,8.07 769.227,7.378 767.116,7.378 767.116,8.07 767.738,8.07 		"/>
		<polygon fill-rule="evenodd" clip-rule="evenodd" fill="#00C0F3" points="770.729,10.031 771.697,10.031 771.697,7.108 
			772.805,7.108 772.805,6.186 770.729,6.186 		"/>
		<path fill-rule="evenodd" clip-rule="evenodd" fill="#00C0F3" d="M773.154,7.378v3.807h0.865V9.762
			c0.218,0.264,0.47,0.368,0.752,0.368c0.687,0,1.112-0.648,1.112-1.428c0-0.852-0.445-1.423-1.112-1.423
			c-0.347,0-0.574,0.132-0.786,0.423V7.378H773.154z M774.47,9.339c-0.366,0-0.52-0.318-0.52-0.637c0-0.313,0.153-0.632,0.52-0.632
			c0.307,0,0.519,0.248,0.519,0.632C774.988,9.092,774.776,9.339,774.47,9.339z"/>
		<polygon fill-rule="evenodd" clip-rule="evenodd" fill="#00C0F3" points="776.313,7.378 776.313,10.031 777.152,10.031 
			778.008,8.57 778.008,10.031 778.873,10.031 778.873,7.378 778.043,7.378 777.178,8.801 777.178,7.378 		"/>
		<polygon fill-rule="evenodd" clip-rule="evenodd" fill="#00C0F3" points="779.431,10.031 780.296,10.031 780.296,8.971 
			781.092,8.971 781.092,10.031 781.957,10.031 781.957,7.378 781.092,7.378 781.092,8.312 780.296,8.312 780.296,7.378 
			779.431,7.378 		"/>
		<path fill-rule="evenodd" clip-rule="evenodd" fill="#00C0F3" d="M782.515,7.378v2.653h1.597c0.119,0,0.757-0.011,0.757-0.676
			c0-0.511-0.336-0.659-0.515-0.698V8.646c0.386-0.132,0.41-0.511,0.41-0.653c0-0.621-0.588-0.615-0.687-0.615H782.515z
			 M783.346,8.416V7.955h0.355c0.089,0,0.252,0.027,0.252,0.225c0,0.226-0.168,0.236-0.252,0.236H783.346z M783.346,9.454V8.938
			h0.381c0.148,0,0.276,0.083,0.276,0.264c0,0.132-0.074,0.252-0.276,0.252H783.346z"/>
		<polygon fill-rule="evenodd" clip-rule="evenodd" fill="#00C0F3" points="785.287,7.378 785.287,10.031 786.128,10.031 
			786.983,8.57 786.983,10.031 787.849,10.031 787.849,7.378 787.018,7.378 786.152,8.801 786.152,7.378 		"/>
		<path fill-rule="evenodd" clip-rule="evenodd" fill="#00C0F3" d="M789.79,10.031h0.865V7.378h-0.865v1.131
			c-0.124,0.033-0.213,0.039-0.292,0.039c-0.178,0-0.331-0.033-0.331-0.33v-0.84h-0.831v1.055c0,0.533,0.277,0.774,0.886,0.774
			c0.138,0,0.38-0.005,0.568-0.039V10.031z"/>
		<path fill-rule="evenodd" clip-rule="evenodd" fill="#00C0F3" d="M792.977,7.702c-0.212-0.302-0.449-0.423-0.781-0.423
			c-0.791,0-1.111,0.752-1.111,1.423c0,0.896,0.504,1.428,1.111,1.428c0.352,0,0.613-0.17,0.781-0.412v0.313h0.831V7.378h-0.831
			V7.702z M792.492,9.339c-0.355,0-0.514-0.318-0.514-0.637c0-0.308,0.153-0.632,0.514-0.632c0.307,0,0.52,0.248,0.52,0.632
			C793.012,9.092,792.799,9.339,792.492,9.339z"/>
	</g>
	<g>
		<path fill-rule="evenodd" clip-rule="evenodd" fill="#00C0F3" d="M974.035,297.274v-0.846h-1.869l-0.38,2.038h0.163
			c0.223-0.116,0.4-0.165,0.594-0.165c0.36,0,0.766,0.126,0.766,0.593c0,0.456-0.277,0.681-0.682,0.681
			c-0.272,0-0.52-0.071-0.841-0.456h-0.104l-0.074,0.923c0.316,0.22,0.653,0.341,1.073,0.341c0.796,0,1.493-0.527,1.493-1.467
			c0-0.687-0.405-1.187-1.103-1.187c-0.148,0-0.276,0.017-0.396,0.044l0.079-0.5H974.035z"/>
		<path fill-rule="evenodd" clip-rule="evenodd" fill="#00C0F3" d="M975.857,300.384c0.342,0,1.315-0.088,1.315-2.033
			c0-1.944-0.974-2.032-1.315-2.032c-0.341,0-1.314,0.088-1.314,2.032C974.543,300.296,975.517,300.384,975.857,300.384z
			 M975.857,299.576c-0.425,0-0.435-0.725-0.435-1.225c0-0.5,0.01-1.225,0.435-1.225c0.426,0,0.436,0.726,0.436,1.225
			C976.293,298.851,976.283,299.576,975.857,299.576z"/>
		<path fill-rule="evenodd" clip-rule="evenodd" fill="#00C0F3" d="M977.869,297.264c0,0.467,0.33,0.835,0.751,0.835
			c0.42,0,0.751-0.368,0.751-0.835s-0.331-0.835-0.751-0.835C978.199,296.429,977.869,296.797,977.869,297.264z M978.215,297.264
			c0-0.28,0.173-0.473,0.405-0.473s0.405,0.192,0.405,0.473s-0.173,0.472-0.405,0.472S978.215,297.544,978.215,297.264z"/>
	</g>
	<g>
		<path fill-rule="evenodd" clip-rule="evenodd" fill="#00C0F3" d="M8.841,363.738h0.831v-0.923h0.385v-0.808H9.672v-2.115H8.529
			l-1.246,2.132v0.791h1.558V363.738z M8.841,362.008H8.074l0.767-1.346V362.008z"/>
		<path fill-rule="evenodd" clip-rule="evenodd" fill="#00C0F3" d="M11.638,363.848c0.341,0,1.315-0.088,1.315-2.032
			s-0.975-2.032-1.315-2.032s-1.315,0.088-1.315,2.032S11.297,363.848,11.638,363.848z M11.638,363.04
			c-0.425,0-0.436-0.725-0.436-1.225s0.011-1.225,0.436-1.225s0.435,0.725,0.435,1.225S12.063,363.04,11.638,363.04z"/>
		<path fill-rule="evenodd" clip-rule="evenodd" fill="#00C0F3" d="M13.648,360.728c0,0.467,0.331,0.835,0.751,0.835
			s0.752-0.368,0.752-0.835s-0.332-0.835-0.752-0.835S13.648,360.261,13.648,360.728z M13.994,360.728
			c0-0.279,0.173-0.473,0.405-0.473s0.405,0.193,0.405,0.473c0,0.28-0.173,0.473-0.405,0.473S13.994,361.008,13.994,360.728z"/>
	</g>
	<g>
		<path fill-rule="evenodd" clip-rule="evenodd" fill="#00C0F3" d="M11.041,83.39v-0.846H9.172l-0.381,2.038h0.164
			c0.222-0.115,0.4-0.165,0.593-0.165c0.361,0,0.767,0.126,0.767,0.593c0,0.456-0.277,0.681-0.683,0.681
			c-0.271,0-0.519-0.071-0.841-0.456H8.688l-0.074,0.923c0.316,0.22,0.652,0.34,1.073,0.34c0.796,0,1.493-0.527,1.493-1.467
			c0-0.687-0.405-1.187-1.103-1.187c-0.148,0-0.277,0.017-0.396,0.044l0.079-0.5H11.041z"/>
		<path fill-rule="evenodd" clip-rule="evenodd" fill="#00C0F3" d="M12.863,86.499c0.342,0,1.315-0.088,1.315-2.033
			c0-1.944-0.974-2.032-1.315-2.032c-0.341,0-1.314,0.088-1.314,2.032C11.549,86.411,12.522,86.499,12.863,86.499z M12.863,85.691
			c-0.425,0-0.435-0.725-0.435-1.225s0.01-1.225,0.435-1.225c0.426,0,0.436,0.725,0.436,1.225S13.289,85.691,12.863,85.691z"/>
		<path fill-rule="evenodd" clip-rule="evenodd" fill="#00C0F3" d="M14.874,83.378c0,0.467,0.331,0.835,0.752,0.835
			c0.42,0,0.751-0.368,0.751-0.835c0-0.467-0.331-0.835-0.751-0.835C15.205,82.543,14.874,82.911,14.874,83.378z M15.221,83.378
			c0-0.28,0.173-0.472,0.405-0.472c0.231,0,0.405,0.192,0.405,0.472c0,0.28-0.174,0.472-0.405,0.472
			C15.394,83.851,15.221,83.658,15.221,83.378z"/>
	</g>
	<g>
		<path fill-rule="evenodd" clip-rule="evenodd" fill="#00C0F3" d="M222.549,28.16c-0.24-0.123-0.516-0.345-0.604-0.695
			c-0.134-0.537,0.229-0.969,0.793-1.109c0.613-0.153,1.156,0.073,1.286,0.591c0.089,0.36-0.068,0.68-0.249,0.908l1.081-0.27
			c0.144-0.336,0.144-0.698,0.069-0.995c-0.228-0.912-1.149-1.522-2.396-1.211c-1.194,0.297-1.793,1.211-1.544,2.209
			c0.071,0.288,0.198,0.592,0.503,0.837L222.549,28.16z"/>
		<path fill-rule="evenodd" clip-rule="evenodd" fill="#00C0F3" d="M222.604,30.275c-0.219,0.013-0.375-0.125-0.437-0.354
			c-0.09-0.335,0.156-0.585,0.482-0.662l0.471,1.758c0.578-0.135,1.535-0.596,1.241-1.694c-0.211-0.788-0.903-1.119-1.715-0.902
			c-0.896,0.24-1.229,0.933-1.036,1.649c0.054,0.201,0.261,0.974,1.208,1.007L222.604,30.275z M223.16,29.144
			c0.279-0.06,0.569,0.047,0.645,0.329c0.081,0.301-0.133,0.522-0.395,0.607L223.16,29.144z"/>
		<path fill-rule="evenodd" clip-rule="evenodd" fill="#00C0F3" d="M224.733,30.979l-2.551,0.731l0.44,1.535
			c0.033,0.114,0.219,0.724,0.857,0.541c0.491-0.141,0.541-0.505,0.529-0.687l0.011-0.003c0.233,0.334,0.604,0.253,0.741,0.214
			c0.597-0.171,0.43-0.735,0.402-0.83L224.733,30.979z M223.964,32.064l0.444-0.127l0.098,0.342c0.024,0.085,0.043,0.25-0.146,0.304
			c-0.217,0.062-0.273-0.096-0.297-0.177L223.964,32.064z M222.967,32.351l0.496-0.143l0.104,0.366
			c0.041,0.143-0.003,0.289-0.177,0.338c-0.127,0.037-0.264-0.001-0.319-0.196L222.967,32.351z"/>
		<path fill-rule="evenodd" clip-rule="evenodd" fill="#00C0F3" d="M224.202,35.75c-0.218,0.02-0.379-0.112-0.448-0.338
			c-0.101-0.331,0.136-0.59,0.459-0.678l0.532,1.74c0.573-0.154,1.514-0.648,1.181-1.736c-0.238-0.78-0.941-1.087-1.745-0.842
			c-0.888,0.271-1.194,0.976-0.978,1.685c0.061,0.199,0.294,0.964,1.242,0.964L224.202,35.75z M224.718,34.6
			c0.277-0.069,0.571,0.027,0.657,0.306c0.091,0.298-0.115,0.526-0.374,0.621L224.718,34.6z"/>
		<path fill-rule="evenodd" clip-rule="evenodd" fill="#00C0F3" d="M226.371,36.395l-3.62,1.176l0.268,0.823l1.353-0.439
			c-0.184,0.288-0.205,0.561-0.117,0.828c0.212,0.654,0.96,0.858,1.701,0.617c0.811-0.264,1.216-0.863,1.01-1.498
			c-0.107-0.329-0.303-0.504-0.646-0.617l0.309-0.1L226.371,36.395z M224.912,38.251c-0.112-0.348,0.143-0.592,0.446-0.69
			c0.298-0.097,0.647-0.049,0.761,0.299c0.095,0.291-0.074,0.57-0.44,0.688C225.308,38.668,225.007,38.543,224.912,38.251z"/>
		<polygon fill-rule="evenodd" clip-rule="evenodd" fill="#00C0F3" points="224.807,40.189 225.089,41.008 226.091,40.663 
			226.35,41.415 225.348,41.76 225.629,42.578 228.138,41.715 227.856,40.896 226.974,41.201 226.715,40.448 227.598,40.144 
			227.315,39.326 		"/>
		<path fill-rule="evenodd" clip-rule="evenodd" fill="#00C0F3" d="M227.809,43.29l0.831-0.302l-0.296-0.813l-2.493,0.907
			l0.476,1.306c0.169,0.465,0.613,0.692,1.109,0.512c0.408-0.148,0.769-0.522,0.553-1.117L227.809,43.29z M226.725,43.685
			l0.506-0.184l0.098,0.27c0.05,0.135,0.004,0.282-0.156,0.341c-0.098,0.036-0.275,0.047-0.35-0.157L226.725,43.685z
			 M226.696,45.405l0.296,0.813l2.493-0.908l-0.296-0.813L226.696,45.405z"/>
		<path fill-rule="evenodd" clip-rule="evenodd" fill="#00C0F3" d="M229.634,45.787l-2.493,0.907l0.288,0.79l1.665,0.304l-1.373,0.5
			l0.296,0.813l2.493-0.908l-0.284-0.78l-1.633-0.326l1.337-0.487L229.634,45.787z M230.421,46.937
			c0.134,0.367,0.427,0.692,0.911,0.705l0.024-0.608c-0.313,0.04-0.411-0.182-0.445-0.274c-0.034-0.093-0.101-0.326,0.164-0.497
			l-0.409-0.45C230.304,46.133,230.287,46.57,230.421,46.937z"/>
		<polygon fill-rule="evenodd" clip-rule="evenodd" fill="#00C0F3" points="231.075,49.774 228.599,50.725 228.908,51.533 
			230.771,50.818 231.043,51.529 229.182,52.244 229.491,53.051 231.969,52.101 		"/>
		<path fill-rule="evenodd" clip-rule="evenodd" fill="#00C0F3" d="M230.058,54.817c0.354,0.923,1.138,1.094,1.846,0.822
			c0.697-0.268,1.171-0.921,0.816-1.844c-0.354-0.923-1.143-1.092-1.841-0.824C230.172,53.243,229.703,53.894,230.058,54.817z
			 M230.704,54.569c-0.124-0.323,0.086-0.605,0.496-0.763c0.405-0.155,0.749-0.086,0.873,0.237c0.124,0.323-0.085,0.604-0.49,0.76
			C231.172,54.961,230.828,54.893,230.704,54.569z"/>
		<path fill-rule="evenodd" clip-rule="evenodd" fill="#00C0F3" d="M234.287,57.861l-0.843-2.085l-1.405,0.568
			c-0.377,0.152-0.5,0.01-0.559-0.137c-0.019-0.046-0.032-0.094-0.035-0.146l-0.643,0.259c0.022,0.098,0.062,0.312,0.115,0.444
			c0.304,0.752,0.887,0.569,1.198,0.444l1.028-0.416l0.207,0.514l-1.849,0.747l0.324,0.802L234.287,57.861z"/>
		<path fill-rule="evenodd" clip-rule="evenodd" fill="#00C0F3" d="M231.965,59.252l0.338,0.834l0.965,0.133l0.026,0.064
			L232.51,60.6l0.324,0.802l2.46-0.994l-0.519-1.284c-0.184-0.454-0.566-0.757-1.147-0.523c-0.433,0.175-0.66,0.522-0.573,0.882
			L231.965,59.252z M233.829,60.066l-0.109-0.271c-0.074-0.183-0.035-0.321,0.163-0.401c0.271-0.109,0.372,0.084,0.407,0.171
			l0.109,0.271L233.829,60.066z"/>
		<path fill-rule="evenodd" clip-rule="evenodd" fill="#00C0F3" d="M235.462,60.96l-3.554,1.364l0.311,0.808l1.328-0.51
			c-0.169,0.298-0.176,0.57-0.074,0.833c0.246,0.642,1.003,0.806,1.731,0.527c0.795-0.306,1.169-0.926,0.93-1.549
			c-0.124-0.323-0.329-0.488-0.677-0.582l0.303-0.116L235.462,60.96z M234.103,62.891c-0.131-0.342,0.111-0.599,0.409-0.713
			c0.292-0.112,0.645-0.083,0.775,0.258c0.109,0.286-0.045,0.573-0.403,0.711C234.52,63.287,234.213,63.177,234.103,62.891z"/>
		<polygon fill-rule="evenodd" clip-rule="evenodd" fill="#00C0F3" points="234.144,64.757 234.439,65.57 235.436,65.207 
			235.708,65.955 234.712,66.317 235.008,67.131 237.501,66.223 237.205,65.41 236.328,65.729 236.056,64.981 236.933,64.662 
			236.637,63.849 		"/>
		<path fill-rule="evenodd" clip-rule="evenodd" fill="#00C0F3" d="M237.199,67.846l0.82-0.332l-0.324-0.802l-2.46,0.994
			l0.521,1.288c0.185,0.458,0.638,0.67,1.127,0.472c0.402-0.163,0.75-0.548,0.513-1.135L237.199,67.846z M236.13,68.278l0.499-0.202
			l0.107,0.266c0.054,0.133,0.014,0.282-0.145,0.346c-0.097,0.039-0.273,0.057-0.354-0.145L236.13,68.278z M236.161,69.999
			l0.324,0.802l2.46-0.994l-0.324-0.802L236.161,69.999z"/>
		<path fill-rule="evenodd" clip-rule="evenodd" fill="#00C0F3" d="M239.12,70.284l-2.442,1.037l0.328,0.773l1.68,0.217
			l-1.346,0.571l0.338,0.796l2.442-1.037l-0.324-0.765l-1.647-0.241l1.31-0.556L239.12,70.284z M239.966,71.391
			c0.152,0.36,0.463,0.669,0.946,0.656l-0.008-0.609c-0.31,0.057-0.42-0.16-0.458-0.251c-0.039-0.091-0.118-0.32,0.138-0.504
			l-0.433-0.429C239.807,70.594,239.813,71.031,239.966,71.391z"/>
		<polygon fill-rule="evenodd" clip-rule="evenodd" fill="#00C0F3" points="238.346,75.219 238.684,76.015 239.766,75.556 
			238.987,76.729 239.414,77.735 240.289,76.198 241.821,76.617 241.408,75.643 240.13,75.401 241.126,74.979 240.788,74.182 		"/>
		<path fill-rule="evenodd" clip-rule="evenodd" fill="#00C0F3" d="M241.987,76.909l-3.478,1.549l0.352,0.79l1.3-0.579
			c-0.152,0.306-0.146,0.579-0.03,0.836c0.279,0.628,1.044,0.752,1.757,0.435c0.777-0.346,1.118-0.985,0.847-1.595
			c-0.141-0.316-0.354-0.47-0.706-0.546l0.296-0.132L241.987,76.909z M240.73,78.908c-0.148-0.334,0.08-0.604,0.371-0.733
			c0.286-0.127,0.639-0.117,0.788,0.218c0.124,0.28-0.015,0.574-0.366,0.731C241.167,79.282,240.855,79.188,240.73,78.908z"/>
		<polygon fill-rule="evenodd" clip-rule="evenodd" fill="#00C0F3" points="243.119,79.496 241.525,81.493 239.824,81.455 
			240.205,82.309 244.386,82.341 244.022,81.523 242.495,81.592 243.527,80.413 		"/>
		<polygon fill-rule="evenodd" clip-rule="evenodd" fill="#00C0F3" points="242.05,83.625 242.401,84.416 244.193,83.618 
			244.517,84.346 245.149,84.064 244.474,82.546 		"/>
	</g>
	<g>
		<path fill-rule="evenodd" clip-rule="evenodd" fill="#00C0F3" d="M422.092,8.795c0.014,0.302,0.133,1.346,1.279,1.346
			c0.812,0,1.32-0.494,1.32-1.225c0-0.621-0.331-0.901-0.617-0.989V7.911c0.32-0.088,0.509-0.39,0.509-0.786
			c0-0.747-0.599-1.049-1.177-1.049c-0.277,0-1.107,0.044-1.246,1.214h0.865c-0.01-0.231,0.163-0.407,0.371-0.407
			c0.129,0,0.341,0.066,0.341,0.407c0,0.406-0.316,0.428-0.396,0.428h-0.108v0.659h0.108c0.178,0,0.484,0.011,0.484,0.423
			c0,0.181-0.039,0.533-0.435,0.533c-0.376,0-0.44-0.352-0.435-0.539H422.092z"/>
		<path fill-rule="evenodd" clip-rule="evenodd" fill="#00C0F3" d="M426.376,10.141c0.341,0,1.315-0.088,1.315-2.032
			s-0.975-2.032-1.315-2.032s-1.315,0.088-1.315,2.032S426.035,10.141,426.376,10.141z M426.376,9.333
			c-0.425,0-0.435-0.725-0.435-1.225s0.01-1.225,0.435-1.225s0.435,0.725,0.435,1.225S426.801,9.333,426.376,9.333z"/>
		<path fill-rule="evenodd" clip-rule="evenodd" fill="#00C0F3" d="M428.387,7.021c0,0.467,0.331,0.835,0.751,0.835
			c0.421,0,0.752-0.368,0.752-0.835c0-0.467-0.331-0.835-0.752-0.835C428.718,6.186,428.387,6.554,428.387,7.021z M428.732,7.021
			c0-0.28,0.173-0.472,0.405-0.472s0.405,0.192,0.405,0.472c0,0.28-0.173,0.473-0.405,0.473S428.732,7.301,428.732,7.021z"/>
	</g>
	<g>
		<polygon fill-rule="evenodd" clip-rule="evenodd" fill="#00C0F3" points="548.58,621.97 549.476,621.97 549.476,618.124 
			548.052,618.124 548.052,619.009 548.58,619.009 		"/>
		<path fill-rule="evenodd" clip-rule="evenodd" fill="#00C0F3" d="M551.782,622.079c0.342,0,1.315-0.088,1.315-2.033
			c0-1.943-0.974-2.031-1.315-2.031c-0.341,0-1.314,0.088-1.314,2.031C550.468,621.991,551.441,622.079,551.782,622.079z
			 M551.782,621.271c-0.425,0-0.435-0.726-0.435-1.226c0-0.499,0.01-1.225,0.435-1.225c0.426,0,0.436,0.726,0.436,1.225
			C552.218,620.546,552.208,621.271,551.782,621.271z"/>
		<path fill-rule="evenodd" clip-rule="evenodd" fill="#00C0F3" d="M554.732,622.079c0.341,0,1.314-0.088,1.314-2.033
			c0-1.943-0.974-2.031-1.314-2.031s-1.315,0.088-1.315,2.031C553.417,621.991,554.392,622.079,554.732,622.079z M554.732,621.271
			c-0.426,0-0.436-0.726-0.436-1.226c0-0.499,0.01-1.225,0.436-1.225c0.425,0,0.436,0.726,0.436,1.225
			C555.168,620.546,555.157,621.271,554.732,621.271z"/>
		<path fill-rule="evenodd" clip-rule="evenodd" fill="#00C0F3" d="M556.743,618.959c0,0.467,0.331,0.835,0.751,0.835
			s0.752-0.368,0.752-0.835s-0.332-0.835-0.752-0.835S556.743,618.492,556.743,618.959z M557.089,618.959
			c0-0.28,0.173-0.473,0.405-0.473s0.405,0.192,0.405,0.473s-0.173,0.472-0.405,0.472S557.089,619.239,557.089,618.959z"/>
	</g>
	<g>
		<polygon fill-rule="evenodd" clip-rule="evenodd" fill="#00C0F3" points="650.8,621.97 651.694,621.97 651.694,618.124 
			650.271,618.124 650.271,619.009 650.8,619.009 		"/>
		<polygon fill-rule="evenodd" clip-rule="evenodd" fill="#00C0F3" points="653.75,621.97 654.645,621.97 654.645,618.124 
			653.221,618.124 653.221,619.009 653.75,619.009 		"/>
		<path fill-rule="evenodd" clip-rule="evenodd" fill="#00C0F3" d="M656.951,622.079c0.342,0,1.315-0.088,1.315-2.033
			c0-1.943-0.974-2.031-1.315-2.031c-0.341,0-1.314,0.088-1.314,2.031C655.637,621.991,656.61,622.079,656.951,622.079z
			 M656.951,621.271c-0.425,0-0.435-0.726-0.435-1.226c0-0.499,0.01-1.225,0.435-1.225c0.426,0,0.436,0.726,0.436,1.225
			C657.387,620.546,657.377,621.271,656.951,621.271z"/>
		<path fill-rule="evenodd" clip-rule="evenodd" fill="#00C0F3" d="M658.962,618.959c0,0.467,0.331,0.835,0.751,0.835
			c0.421,0,0.752-0.368,0.752-0.835s-0.331-0.835-0.752-0.835C659.293,618.124,658.962,618.492,658.962,618.959z M659.309,618.959
			c0-0.28,0.172-0.473,0.404-0.473s0.406,0.192,0.406,0.473s-0.174,0.472-0.406,0.472S659.309,619.239,659.309,618.959z"/>
	</g>
	<g>
		<polygon fill-rule="evenodd" clip-rule="evenodd" fill="#00C0F3" points="758.3,621.97 759.195,621.97 759.195,618.124 
			757.771,618.124 757.771,619.009 758.3,619.009 		"/>
		<path fill-rule="evenodd" clip-rule="evenodd" fill="#00C0F3" d="M762.729,621.123h-1.02c0.781-0.89,1.059-1.258,1.059-1.829
			c0-0.648-0.396-1.279-1.261-1.279c-1.053,0-1.306,0.906-1.32,1.461h0.865c0-0.154,0.03-0.654,0.431-0.654
			c0.271,0,0.42,0.248,0.42,0.5c0,0.226-0.094,0.391-0.405,0.791l-1.434,1.857h2.665V621.123z"/>
		<path fill-rule="evenodd" clip-rule="evenodd" fill="#00C0F3" d="M764.451,622.079c0.342,0,1.315-0.088,1.315-2.033
			c0-1.943-0.974-2.031-1.315-2.031c-0.341,0-1.314,0.088-1.314,2.031C763.137,621.991,764.11,622.079,764.451,622.079z
			 M764.451,621.271c-0.425,0-0.435-0.726-0.435-1.226c0-0.499,0.01-1.225,0.435-1.225c0.426,0,0.436,0.726,0.436,1.225
			C764.887,620.546,764.877,621.271,764.451,621.271z"/>
		<path fill-rule="evenodd" clip-rule="evenodd" fill="#00C0F3" d="M766.462,618.959c0,0.467,0.331,0.835,0.752,0.835
			c0.42,0,0.751-0.368,0.751-0.835s-0.331-0.835-0.751-0.835C766.793,618.124,766.462,618.492,766.462,618.959z M766.809,618.959
			c0-0.28,0.173-0.473,0.405-0.473s0.405,0.192,0.405,0.473s-0.173,0.472-0.405,0.472S766.809,619.239,766.809,618.959z"/>
	</g>
	<g>
		<polygon fill-rule="evenodd" clip-rule="evenodd" fill="#00C0F3" points="873.301,621.97 874.195,621.97 874.195,618.124 
			872.771,618.124 872.771,619.009 873.301,619.009 		"/>
		<path fill-rule="evenodd" clip-rule="evenodd" fill="#00C0F3" d="M875.168,620.733c0.014,0.302,0.133,1.346,1.279,1.346
			c0.812,0,1.32-0.494,1.32-1.225c0-0.621-0.331-0.901-0.617-0.989v-0.017c0.32-0.088,0.509-0.39,0.509-0.785
			c0-0.747-0.599-1.049-1.177-1.049c-0.277,0-1.107,0.043-1.246,1.213h0.865c-0.01-0.23,0.163-0.406,0.371-0.406
			c0.129,0,0.341,0.066,0.341,0.406c0,0.407-0.316,0.429-0.396,0.429h-0.108v0.659h0.108c0.178,0,0.484,0.012,0.484,0.424
			c0,0.181-0.039,0.532-0.435,0.532c-0.376,0-0.44-0.352-0.436-0.538H875.168z"/>
		<path fill-rule="evenodd" clip-rule="evenodd" fill="#00C0F3" d="M879.452,622.079c0.341,0,1.315-0.088,1.315-2.033
			c0-1.943-0.975-2.031-1.315-2.031s-1.315,0.088-1.315,2.031C878.137,621.991,879.111,622.079,879.452,622.079z M879.452,621.271
			c-0.425,0-0.435-0.726-0.435-1.226c0-0.499,0.01-1.225,0.435-1.225s0.435,0.726,0.435,1.225
			C879.887,620.546,879.877,621.271,879.452,621.271z"/>
		<path fill-rule="evenodd" clip-rule="evenodd" fill="#00C0F3" d="M881.463,618.959c0,0.467,0.331,0.835,0.751,0.835
			c0.421,0,0.751-0.368,0.751-0.835s-0.33-0.835-0.751-0.835C881.794,618.124,881.463,618.492,881.463,618.959z M881.809,618.959
			c0-0.28,0.173-0.473,0.405-0.473s0.405,0.192,0.405,0.473s-0.173,0.472-0.405,0.472S881.809,619.239,881.809,618.959z"/>
	</g>
	<g>
		<polygon fill-rule="evenodd" clip-rule="evenodd" fill="#00C0F3" points="972.551,555.449 973.445,555.449 973.445,551.604 
			972.021,551.604 972.021,552.488 972.551,552.488 		"/>
		<path fill-rule="evenodd" clip-rule="evenodd" fill="#00C0F3" d="M975.906,555.449h0.83v-0.923h0.386v-0.808h-0.386v-2.115h-1.143
			l-1.245,2.132v0.791h1.558V555.449z M975.906,553.719h-0.767l0.767-1.346V553.719z"/>
		<path fill-rule="evenodd" clip-rule="evenodd" fill="#00C0F3" d="M978.702,555.559c0.341,0,1.315-0.088,1.315-2.032
			s-0.975-2.032-1.315-2.032s-1.315,0.088-1.315,2.032S978.361,555.559,978.702,555.559z M978.702,554.751
			c-0.425,0-0.435-0.725-0.435-1.225s0.01-1.225,0.435-1.225s0.435,0.725,0.435,1.225S979.127,554.751,978.702,554.751z"/>
		<path fill-rule="evenodd" clip-rule="evenodd" fill="#00C0F3" d="M980.713,552.438c0,0.467,0.331,0.835,0.752,0.835
			c0.42,0,0.751-0.368,0.751-0.835s-0.331-0.835-0.751-0.835C981.044,551.604,980.713,551.972,980.713,552.438z M981.059,552.438
			c0-0.279,0.174-0.473,0.406-0.473c0.231,0,0.404,0.193,0.404,0.473c0,0.28-0.173,0.473-0.404,0.473
			C981.232,552.911,981.059,552.719,981.059,552.438z"/>
	</g>
	<g>
		<polygon fill-rule="evenodd" clip-rule="evenodd" fill="#00C0F3" points="972.551,392.45 973.445,392.45 973.445,388.604 
			972.021,388.604 972.021,389.489 972.551,389.489 		"/>
		<path fill-rule="evenodd" clip-rule="evenodd" fill="#00C0F3" d="M976.88,389.45v-0.846h-1.869l-0.381,2.038h0.163
			c0.223-0.116,0.4-0.165,0.594-0.165c0.361,0,0.766,0.127,0.766,0.594c0,0.455-0.276,0.681-0.682,0.681
			c-0.271,0-0.52-0.071-0.841-0.456h-0.104l-0.074,0.923c0.316,0.22,0.652,0.341,1.073,0.341c0.796,0,1.492-0.527,1.492-1.467
			c0-0.687-0.404-1.187-1.102-1.187c-0.148,0-0.277,0.017-0.396,0.044l0.08-0.5H976.88z"/>
		<path fill-rule="evenodd" clip-rule="evenodd" fill="#00C0F3" d="M978.702,392.56c0.341,0,1.315-0.088,1.315-2.033
			c0-1.943-0.975-2.031-1.315-2.031s-1.315,0.088-1.315,2.031C977.387,392.472,978.361,392.56,978.702,392.56z M978.702,391.752
			c-0.425,0-0.435-0.726-0.435-1.226c0-0.499,0.01-1.225,0.435-1.225s0.436,0.726,0.436,1.225
			C979.138,391.026,979.127,391.752,978.702,391.752z"/>
		<path fill-rule="evenodd" clip-rule="evenodd" fill="#00C0F3" d="M980.713,389.439c0,0.467,0.331,0.835,0.752,0.835
			c0.42,0,0.751-0.368,0.751-0.835s-0.331-0.835-0.751-0.835C981.044,388.604,980.713,388.973,980.713,389.439z M981.059,389.439
			c0-0.28,0.174-0.473,0.406-0.473c0.231,0,0.404,0.192,0.404,0.473s-0.173,0.472-0.404,0.472
			C981.232,389.911,981.059,389.72,981.059,389.439z"/>
	</g>
	<g>
		<polygon fill-rule="evenodd" clip-rule="evenodd" fill="#00C0F3" points="972.551,276.7 973.445,276.7 973.445,272.855 
			972.021,272.855 972.021,273.739 972.551,273.739 		"/>
		<path fill-rule="evenodd" clip-rule="evenodd" fill="#00C0F3" d="M975.59,272.855l-0.791,1.28
			c-0.263,0.423-0.381,0.796-0.381,1.28c0,0.846,0.528,1.396,1.324,1.396c0.891,0,1.346-0.654,1.346-1.396
			c0-0.736-0.416-1.263-1.034-1.263c-0.123,0-0.207,0.022-0.286,0.049l0.846-1.346H975.59z M975.732,276.002
			c-0.307,0-0.484-0.252-0.484-0.577c0-0.313,0.178-0.571,0.484-0.571c0.316,0,0.49,0.269,0.49,0.571
			C976.223,275.75,976.029,276.002,975.732,276.002z"/>
		<path fill-rule="evenodd" clip-rule="evenodd" fill="#00C0F3" d="M978.702,276.81c0.341,0,1.315-0.088,1.315-2.033
			c0-1.944-0.975-2.032-1.315-2.032s-1.315,0.088-1.315,2.032C977.387,276.722,978.361,276.81,978.702,276.81z M978.702,276.002
			c-0.425,0-0.435-0.725-0.435-1.225s0.01-1.225,0.435-1.225s0.436,0.725,0.436,1.225S979.127,276.002,978.702,276.002z"/>
		<path fill-rule="evenodd" clip-rule="evenodd" fill="#00C0F3" d="M980.713,273.69c0,0.467,0.331,0.835,0.752,0.835
			c0.42,0,0.751-0.368,0.751-0.835c0-0.467-0.331-0.835-0.751-0.835C981.044,272.855,980.713,273.223,980.713,273.69z
			 M981.059,273.69c0-0.28,0.174-0.473,0.406-0.473c0.231,0,0.404,0.192,0.404,0.473c0,0.28-0.173,0.472-0.404,0.472
			C981.232,274.162,981.059,273.97,981.059,273.69z"/>
	</g>
	<g>
		<polygon fill-rule="evenodd" clip-rule="evenodd" fill="#00C0F3" points="972.551,184.45 973.445,184.45 973.445,180.605 
			972.021,180.605 972.021,181.489 972.551,181.489 		"/>
		<polygon fill-rule="evenodd" clip-rule="evenodd" fill="#00C0F3" points="974.596,184.45 975.634,184.45 977.226,180.605 
			974.486,180.605 974.486,181.489 975.9,181.489 		"/>
		<path fill-rule="evenodd" clip-rule="evenodd" fill="#00C0F3" d="M978.702,184.561c0.341,0,1.315-0.088,1.315-2.033
			s-0.975-2.033-1.315-2.033s-1.315,0.088-1.315,2.033S978.361,184.561,978.702,184.561z M978.702,183.753
			c-0.425,0-0.435-0.726-0.435-1.225c0-0.5,0.01-1.225,0.435-1.225s0.435,0.725,0.435,1.225
			C979.137,183.027,979.127,183.753,978.702,183.753z"/>
		<path fill-rule="evenodd" clip-rule="evenodd" fill="#00C0F3" d="M980.713,181.44c0,0.467,0.331,0.835,0.752,0.835
			c0.42,0,0.751-0.368,0.751-0.835c0-0.467-0.331-0.835-0.751-0.835C981.044,180.605,980.713,180.973,980.713,181.44z
			 M981.059,181.44c0-0.28,0.174-0.473,0.406-0.473c0.231,0,0.404,0.192,0.404,0.473c0,0.28-0.173,0.472-0.404,0.472
			C981.232,181.913,981.059,181.72,981.059,181.44z"/>
	</g>
	<g>
		<polygon fill-rule="evenodd" clip-rule="evenodd" fill="#00C0F3" points="972.301,107.951 973.195,107.951 973.195,104.105 
			971.771,104.105 971.771,104.99 972.301,104.99 		"/>
		<path fill-rule="evenodd" clip-rule="evenodd" fill="#00C0F3" d="M976.18,105.907c0.268-0.11,0.499-0.385,0.499-0.852
			c0-0.571-0.38-1.06-1.177-1.06c-0.795,0-1.176,0.489-1.176,1.06c0,0.467,0.232,0.742,0.499,0.852v0.011
			c-0.228,0.072-0.657,0.303-0.657,0.978c0,0.368,0.148,1.165,1.334,1.165c1.188,0,1.335-0.796,1.335-1.165
			c0-0.675-0.43-0.906-0.657-0.978V105.907z M975.502,105.583c-0.152,0-0.355-0.104-0.355-0.412c0-0.346,0.232-0.417,0.355-0.417
			c0.129,0,0.361,0.077,0.361,0.417C975.863,105.468,975.676,105.583,975.502,105.583z M975.502,107.253
			c-0.276,0-0.43-0.241-0.43-0.494c0-0.297,0.203-0.483,0.43-0.483c0.158,0,0.436,0.11,0.436,0.483
			C975.938,107.012,975.789,107.253,975.502,107.253z"/>
		<path fill-rule="evenodd" clip-rule="evenodd" fill="#00C0F3" d="M978.452,108.061c0.341,0,1.315-0.088,1.315-2.032
			c0-1.945-0.975-2.033-1.315-2.033s-1.315,0.088-1.315,2.033C977.137,107.973,978.111,108.061,978.452,108.061z M978.452,107.253
			c-0.425,0-0.435-0.725-0.435-1.225s0.01-1.225,0.435-1.225s0.435,0.725,0.435,1.225S978.877,107.253,978.452,107.253z"/>
		<path fill-rule="evenodd" clip-rule="evenodd" fill="#00C0F3" d="M980.463,104.94c0,0.467,0.331,0.835,0.752,0.835
			c0.42,0,0.751-0.368,0.751-0.835s-0.331-0.835-0.751-0.835C980.794,104.105,980.463,104.474,980.463,104.94z M980.809,104.94
			c0-0.28,0.174-0.473,0.406-0.473c0.231,0,0.404,0.192,0.404,0.473s-0.173,0.473-0.404,0.473
			C980.982,105.413,980.809,105.221,980.809,104.94z"/>
	</g>
	<g>
		<polygon fill-rule="evenodd" clip-rule="evenodd" fill="#00C0F3" points="972.301,39.201 973.195,39.201 973.195,35.355 
			971.771,35.355 971.771,36.24 972.301,36.24 		"/>
		<polygon fill-rule="evenodd" clip-rule="evenodd" fill="#00C0F3" points="974.346,39.201 975.384,39.201 976.976,35.355 
			974.236,35.355 974.236,36.24 975.65,36.24 		"/>
		<path fill-rule="evenodd" clip-rule="evenodd" fill="#00C0F3" d="M978.452,39.311c0.341,0,1.315-0.088,1.315-2.032
			s-0.975-2.032-1.315-2.032s-1.315,0.088-1.315,2.032S978.111,39.311,978.452,39.311z M978.452,38.503
			c-0.425,0-0.435-0.725-0.435-1.225s0.01-1.225,0.435-1.225s0.435,0.725,0.435,1.225S978.877,38.503,978.452,38.503z"/>
		<path fill-rule="evenodd" clip-rule="evenodd" fill="#00C0F3" d="M980.463,36.19c0,0.467,0.331,0.835,0.752,0.835
			c0.42,0,0.751-0.368,0.751-0.835c0-0.467-0.331-0.835-0.751-0.835C980.794,35.355,980.463,35.724,980.463,36.19z M980.809,36.19
			c0-0.28,0.174-0.472,0.406-0.472c0.231,0,0.404,0.192,0.404,0.472c0,0.28-0.173,0.473-0.404,0.473
			C980.982,36.663,980.809,36.471,980.809,36.19z"/>
	</g>
	<g>
		<polygon fill-rule="evenodd" clip-rule="evenodd" fill="#00C0F3" points="855.051,10.031 855.945,10.031 855.945,6.186 
			854.521,6.186 854.521,7.07 855.051,7.07 		"/>
		<polygon fill-rule="evenodd" clip-rule="evenodd" fill="#00C0F3" points="857.096,10.031 858.134,10.031 859.726,6.186 
			856.986,6.186 856.986,7.07 858.4,7.07 		"/>
		<path fill-rule="evenodd" clip-rule="evenodd" fill="#00C0F3" d="M861.202,10.141c0.341,0,1.315-0.088,1.315-2.032
			s-0.975-2.032-1.315-2.032s-1.315,0.088-1.315,2.032S860.861,10.141,861.202,10.141z M861.202,9.333
			c-0.425,0-0.436-0.725-0.436-1.225s0.011-1.225,0.436-1.225s0.435,0.725,0.435,1.225S861.627,9.333,861.202,9.333z"/>
		<path fill-rule="evenodd" clip-rule="evenodd" fill="#00C0F3" d="M863.213,7.021c0,0.467,0.331,0.835,0.751,0.835
			c0.421,0,0.751-0.368,0.751-0.835c0-0.467-0.33-0.835-0.751-0.835C863.544,6.186,863.213,6.554,863.213,7.021z M863.559,7.021
			c0-0.28,0.173-0.472,0.405-0.472s0.405,0.192,0.405,0.472c0,0.28-0.173,0.473-0.405,0.473S863.559,7.301,863.559,7.021z"/>
	</g>
	<g>
		<polygon fill-rule="evenodd" clip-rule="evenodd" fill="#00C0F3" points="613.998,10.031 614.893,10.031 614.893,6.186 
			613.469,6.186 613.469,7.07 613.998,7.07 		"/>
		<path fill-rule="evenodd" clip-rule="evenodd" fill="#00C0F3" d="M618.327,7.032V6.186h-1.869l-0.38,2.038h0.162
			c0.223-0.115,0.4-0.165,0.594-0.165c0.361,0,0.767,0.126,0.767,0.593c0,0.456-0.277,0.681-0.683,0.681
			c-0.271,0-0.52-0.072-0.84-0.456h-0.104L615.899,9.8c0.316,0.22,0.653,0.34,1.073,0.34c0.796,0,1.493-0.527,1.493-1.466
			c0-0.687-0.405-1.187-1.103-1.187c-0.148,0-0.277,0.016-0.396,0.044l0.079-0.5H618.327z"/>
		<path fill-rule="evenodd" clip-rule="evenodd" fill="#00C0F3" d="M620.149,10.141c0.341,0,1.315-0.088,1.315-2.032
			s-0.975-2.032-1.315-2.032s-1.314,0.088-1.314,2.032S619.809,10.141,620.149,10.141z M620.149,9.333
			c-0.425,0-0.435-0.725-0.435-1.225s0.01-1.225,0.435-1.225c0.426,0,0.436,0.725,0.436,1.225S620.575,9.333,620.149,9.333z"/>
		<path fill-rule="evenodd" clip-rule="evenodd" fill="#00C0F3" d="M622.16,7.021c0,0.467,0.331,0.835,0.752,0.835
			c0.42,0,0.751-0.368,0.751-0.835c0-0.467-0.331-0.835-0.751-0.835C622.491,6.186,622.16,6.554,622.16,7.021z M622.506,7.021
			c0-0.28,0.174-0.472,0.406-0.472s0.405,0.192,0.405,0.472c0,0.28-0.173,0.473-0.405,0.473S622.506,7.301,622.506,7.021z"/>
	</g>
	<g>
		<path fill-rule="evenodd" clip-rule="evenodd" fill="#00C0F3" d="M481.532,7.032V6.186h-1.869l-0.381,2.038h0.163
			c0.223-0.115,0.4-0.165,0.594-0.165c0.361,0,0.766,0.126,0.766,0.593c0,0.456-0.276,0.681-0.682,0.681
			c-0.271,0-0.52-0.072-0.841-0.456h-0.104L479.104,9.8c0.316,0.22,0.652,0.34,1.073,0.34c0.795,0,1.492-0.527,1.492-1.466
			c0-0.687-0.405-1.187-1.102-1.187c-0.148,0-0.277,0.016-0.396,0.044l0.08-0.5H481.532z"/>
		<path fill-rule="evenodd" clip-rule="evenodd" fill="#00C0F3" d="M483.354,10.141c0.341,0,1.315-0.088,1.315-2.032
			s-0.975-2.032-1.315-2.032s-1.315,0.088-1.315,2.032S483.014,10.141,483.354,10.141z M483.354,9.333
			c-0.425,0-0.435-0.725-0.435-1.225s0.01-1.225,0.435-1.225s0.435,0.725,0.435,1.225S483.779,9.333,483.354,9.333z"/>
		<path fill-rule="evenodd" clip-rule="evenodd" fill="#00C0F3" d="M485.365,7.021c0,0.467,0.331,0.835,0.751,0.835
			c0.421,0,0.752-0.368,0.752-0.835c0-0.467-0.331-0.835-0.752-0.835C485.696,6.186,485.365,6.554,485.365,7.021z M485.711,7.021
			c0-0.28,0.174-0.472,0.405-0.472c0.232,0,0.405,0.192,0.405,0.472c0,0.28-0.173,0.473-0.405,0.473
			C485.885,7.493,485.711,7.301,485.711,7.021z"/>
	</g>
	<g>
		<polygon fill-rule="evenodd" clip-rule="evenodd" fill="#00C0F3" points="513.563,10.031 514.601,10.031 516.192,6.186 
			513.454,6.186 513.454,7.07 514.867,7.07 		"/>
		<path fill-rule="evenodd" clip-rule="evenodd" fill="#00C0F3" d="M517.669,10.141c0.341,0,1.315-0.088,1.315-2.032
			s-0.975-2.032-1.315-2.032s-1.314,0.088-1.314,2.032S517.328,10.141,517.669,10.141z M517.669,9.333
			c-0.425,0-0.435-0.725-0.435-1.225s0.01-1.225,0.435-1.225c0.426,0,0.436,0.725,0.436,1.225S518.095,9.333,517.669,9.333z"/>
		<path fill-rule="evenodd" clip-rule="evenodd" fill="#00C0F3" d="M519.68,7.021c0,0.467,0.331,0.835,0.752,0.835
			c0.42,0,0.751-0.368,0.751-0.835c0-0.467-0.331-0.835-0.751-0.835C520.011,6.186,519.68,6.554,519.68,7.021z M520.025,7.021
			c0-0.28,0.174-0.472,0.406-0.472s0.405,0.192,0.405,0.472c0,0.28-0.173,0.473-0.405,0.473S520.025,7.301,520.025,7.021z"/>
	</g>
	<g>
		<polygon fill-rule="evenodd" clip-rule="evenodd" fill="#00C0F3" points="583.313,10.031 584.207,10.031 584.207,6.186 
			582.783,6.186 582.783,7.07 583.313,7.07 		"/>
		<path fill-rule="evenodd" clip-rule="evenodd" fill="#00C0F3" d="M585.18,8.795c0.015,0.302,0.133,1.346,1.28,1.346
			c0.811,0,1.32-0.494,1.32-1.225c0-0.621-0.331-0.901-0.618-0.989V7.911c0.321-0.088,0.509-0.39,0.509-0.786
			c0-0.747-0.598-1.049-1.177-1.049c-0.276,0-1.107,0.044-1.245,1.214h0.865c-0.011-0.231,0.163-0.407,0.37-0.407
			c0.129,0,0.342,0.066,0.342,0.407c0,0.406-0.316,0.428-0.396,0.428h-0.109v0.659h0.109c0.178,0,0.484,0.011,0.484,0.423
			c0,0.181-0.04,0.533-0.436,0.533c-0.376,0-0.439-0.352-0.435-0.539H585.18z"/>
		<path fill-rule="evenodd" clip-rule="evenodd" fill="#00C0F3" d="M589.464,10.141c0.342,0,1.315-0.088,1.315-2.032
			s-0.974-2.032-1.315-2.032c-0.341,0-1.314,0.088-1.314,2.032S589.123,10.141,589.464,10.141z M589.464,9.333
			c-0.425,0-0.435-0.725-0.435-1.225s0.01-1.225,0.435-1.225c0.426,0,0.436,0.725,0.436,1.225S589.89,9.333,589.464,9.333z"/>
		<path fill-rule="evenodd" clip-rule="evenodd" fill="#00C0F3" d="M591.475,7.021c0,0.467,0.331,0.835,0.752,0.835
			c0.42,0,0.751-0.368,0.751-0.835c0-0.467-0.331-0.835-0.751-0.835C591.806,6.186,591.475,6.554,591.475,7.021z M591.82,7.021
			c0-0.28,0.174-0.472,0.406-0.472s0.405,0.192,0.405,0.472c0,0.28-0.173,0.473-0.405,0.473S591.82,7.301,591.82,7.021z"/>
	</g>
	<g>
		<polygon fill-rule="evenodd" clip-rule="evenodd" fill="#00C0F3" points="558.521,10.031 559.416,10.031 559.416,6.186 
			557.992,6.186 557.992,7.07 558.521,7.07 		"/>
		<polygon fill-rule="evenodd" clip-rule="evenodd" fill="#00C0F3" points="561.472,10.031 562.366,10.031 562.366,6.186 
			560.942,6.186 560.942,7.07 561.472,7.07 		"/>
		<path fill-rule="evenodd" clip-rule="evenodd" fill="#00C0F3" d="M564.674,10.141c0.341,0,1.314-0.088,1.314-2.032
			s-0.974-2.032-1.314-2.032c-0.342,0-1.315,0.088-1.315,2.032S564.332,10.141,564.674,10.141z M564.674,9.333
			c-0.426,0-0.436-0.725-0.436-1.225s0.01-1.225,0.436-1.225c0.425,0,0.435,0.725,0.435,1.225S565.099,9.333,564.674,9.333z"/>
		<path fill-rule="evenodd" clip-rule="evenodd" fill="#00C0F3" d="M566.684,7.021c0,0.467,0.332,0.835,0.752,0.835
			s0.752-0.368,0.752-0.835c0-0.467-0.332-0.835-0.752-0.835S566.684,6.554,566.684,7.021z M567.03,7.021
			c0-0.28,0.173-0.472,0.405-0.472s0.405,0.192,0.405,0.472c0,0.28-0.173,0.473-0.405,0.473S567.03,7.301,567.03,7.021z"/>
	</g>
	<g>
		<path fill-rule="evenodd" clip-rule="evenodd" fill="#00C0F3" d="M538.631,10.031l0.791-1.28c0.262-0.423,0.381-0.796,0.381-1.28
			c0-0.846-0.529-1.395-1.325-1.395c-0.89,0-1.345,0.653-1.345,1.395c0,0.736,0.415,1.263,1.033,1.263
			c0.123,0,0.207-0.021,0.287-0.049l-0.846,1.346H538.631z M538.487,6.883c0.307,0,0.484,0.253,0.484,0.577
			c0,0.313-0.178,0.571-0.484,0.571c-0.316,0-0.489-0.269-0.489-0.571C537.998,7.136,538.19,6.883,538.487,6.883z"/>
		<path fill-rule="evenodd" clip-rule="evenodd" fill="#00C0F3" d="M541.417,10.141c0.341,0,1.315-0.088,1.315-2.032
			s-0.975-2.032-1.315-2.032s-1.314,0.088-1.314,2.032S541.076,10.141,541.417,10.141z M541.417,9.333
			c-0.425,0-0.435-0.725-0.435-1.225s0.01-1.225,0.435-1.225c0.426,0,0.436,0.725,0.436,1.225S541.843,9.333,541.417,9.333z"/>
		<path fill-rule="evenodd" clip-rule="evenodd" fill="#00C0F3" d="M543.428,7.021c0,0.467,0.331,0.835,0.752,0.835
			c0.42,0,0.751-0.368,0.751-0.835c0-0.467-0.331-0.835-0.751-0.835C543.759,6.186,543.428,6.554,543.428,7.021z M543.773,7.021
			c0-0.28,0.174-0.472,0.406-0.472s0.405,0.192,0.405,0.472c0,0.28-0.173,0.473-0.405,0.473S543.773,7.301,543.773,7.021z"/>
	</g>
	<g>
		<polygon fill-rule="evenodd" clip-rule="evenodd" fill="#00C0F3" points="237.407,10.031 238.303,10.031 238.303,6.186 
			236.879,6.186 236.879,7.07 237.407,7.07 		"/>
		<path fill-rule="evenodd" clip-rule="evenodd" fill="#00C0F3" d="M240.609,10.141c0.341,0,1.314-0.088,1.314-2.032
			s-0.974-2.032-1.314-2.032s-1.315,0.088-1.315,2.032S240.269,10.141,240.609,10.141z M240.609,9.333
			c-0.425,0-0.436-0.725-0.436-1.225s0.011-1.225,0.436-1.225s0.436,0.725,0.436,1.225S241.034,9.333,240.609,9.333z"/>
		<path fill-rule="evenodd" clip-rule="evenodd" fill="#00C0F3" d="M242.62,7.021c0,0.467,0.331,0.835,0.751,0.835
			s0.752-0.368,0.752-0.835c0-0.467-0.332-0.835-0.752-0.835S242.62,6.554,242.62,7.021z M242.966,7.021
			c0-0.28,0.173-0.472,0.405-0.472s0.405,0.192,0.405,0.472c0,0.28-0.173,0.473-0.405,0.473S242.966,7.301,242.966,7.021z"/>
	</g>
	<g>
		<polygon fill-rule="evenodd" clip-rule="evenodd" fill="#00C0F3" points="8.436,64.973 9.33,64.973 9.33,61.128 7.906,61.128 
			7.906,62.012 8.436,62.012 		"/>
		<path fill-rule="evenodd" clip-rule="evenodd" fill="#00C0F3" d="M11.638,65.083c0.341,0,1.315-0.088,1.315-2.032
			c0-1.945-0.975-2.033-1.315-2.033s-1.315,0.088-1.315,2.033C10.322,64.995,11.297,65.083,11.638,65.083z M11.638,64.275
			c-0.425,0-0.436-0.725-0.436-1.225c0-0.5,0.011-1.226,0.436-1.226s0.435,0.726,0.435,1.226
			C12.072,63.55,12.063,64.275,11.638,64.275z"/>
		<path fill-rule="evenodd" clip-rule="evenodd" fill="#00C0F3" d="M13.648,61.963c0,0.467,0.331,0.835,0.751,0.835
			s0.752-0.368,0.752-0.835s-0.332-0.835-0.752-0.835S13.648,61.496,13.648,61.963z M13.994,61.963c0-0.28,0.173-0.473,0.405-0.473
			s0.405,0.192,0.405,0.473s-0.173,0.473-0.405,0.473S13.994,62.243,13.994,61.963z"/>
	</g>
	<g>
		<path fill-rule="evenodd" clip-rule="evenodd" fill="#00C0F3" d="M129.138,6.186l-0.791,1.28c-0.263,0.423-0.381,0.796-0.381,1.28
			c0,0.846,0.528,1.395,1.325,1.395c0.89,0,1.345-0.653,1.345-1.395c0-0.736-0.416-1.263-1.034-1.263
			c-0.123,0-0.207,0.021-0.286,0.049l0.846-1.346H129.138z M129.281,9.333c-0.307,0-0.485-0.253-0.485-0.577
			c0-0.313,0.179-0.571,0.485-0.571c0.316,0,0.489,0.269,0.489,0.571C129.771,9.081,129.577,9.333,129.281,9.333z"/>
		<path fill-rule="evenodd" clip-rule="evenodd" fill="#00C0F3" d="M132.25,10.141c0.342,0,1.315-0.088,1.315-2.032
			s-0.974-2.032-1.315-2.032c-0.341,0-1.314,0.088-1.314,2.032S131.909,10.141,132.25,10.141z M132.25,9.333
			c-0.425,0-0.435-0.725-0.435-1.225s0.01-1.225,0.435-1.225c0.426,0,0.436,0.725,0.436,1.225S132.676,9.333,132.25,9.333z"/>
		<path fill-rule="evenodd" clip-rule="evenodd" fill="#00C0F3" d="M134.261,7.021c0,0.467,0.331,0.835,0.752,0.835
			c0.42,0,0.751-0.368,0.751-0.835c0-0.467-0.331-0.835-0.751-0.835C134.592,6.186,134.261,6.554,134.261,7.021z M134.607,7.021
			c0-0.28,0.173-0.472,0.405-0.472c0.231,0,0.405,0.192,0.405,0.472c0,0.28-0.174,0.473-0.405,0.473
			C134.78,7.493,134.607,7.301,134.607,7.021z"/>
	</g>
	<g>
		<path fill-rule="evenodd" clip-rule="evenodd" fill="#00C0F3" d="M7.353,250.129c0.015,0.302,0.134,1.346,1.28,1.346
			c0.812,0,1.32-0.494,1.32-1.225c0-0.621-0.331-0.901-0.618-0.989v-0.017c0.321-0.088,0.51-0.39,0.51-0.785
			c0-0.747-0.599-1.049-1.177-1.049c-0.277,0-1.107,0.044-1.246,1.214h0.865c-0.01-0.231,0.163-0.407,0.371-0.407
			c0.129,0,0.341,0.066,0.341,0.407c0,0.407-0.316,0.428-0.396,0.428H8.495v0.659h0.108c0.178,0,0.484,0.011,0.484,0.423
			c0,0.181-0.039,0.533-0.435,0.533c-0.376,0-0.44-0.352-0.436-0.538H7.353z"/>
		<path fill-rule="evenodd" clip-rule="evenodd" fill="#00C0F3" d="M11.638,251.475c0.341,0,1.315-0.088,1.315-2.032
			c0-1.945-0.975-2.033-1.315-2.033s-1.315,0.088-1.315,2.033C10.322,251.387,11.297,251.475,11.638,251.475z M11.638,250.667
			c-0.425,0-0.436-0.725-0.436-1.225c0-0.5,0.011-1.226,0.436-1.226s0.435,0.726,0.435,1.226
			C12.072,249.942,12.063,250.667,11.638,250.667z"/>
		<path fill-rule="evenodd" clip-rule="evenodd" fill="#00C0F3" d="M13.648,248.354c0,0.467,0.331,0.835,0.751,0.835
			s0.752-0.368,0.752-0.835s-0.332-0.835-0.752-0.835S13.648,247.888,13.648,248.354z M13.994,248.354
			c0-0.28,0.173-0.473,0.405-0.473s0.405,0.192,0.405,0.473s-0.173,0.473-0.405,0.473S13.994,248.635,13.994,248.354z"/>
	</g>
	<g>
		<path fill-rule="evenodd" clip-rule="evenodd" fill="#00C0F3" d="M8.841,371.21h0.831v-0.923h0.385v-0.808H9.672v-2.115H8.529
			l-1.246,2.132v0.791h1.558V371.21z M8.841,369.479H8.074l0.767-1.346V369.479z"/>
		<path fill-rule="evenodd" clip-rule="evenodd" fill="#00C0F3" d="M11.638,371.319c0.341,0,1.315-0.088,1.315-2.032
			s-0.975-2.032-1.315-2.032s-1.315,0.088-1.315,2.032S11.297,371.319,11.638,371.319z M11.638,370.513
			c-0.425,0-0.436-0.726-0.436-1.226s0.011-1.225,0.436-1.225s0.435,0.725,0.435,1.225S12.063,370.513,11.638,370.513z"/>
		<path fill-rule="evenodd" clip-rule="evenodd" fill="#00C0F3" d="M13.648,368.199c0,0.468,0.331,0.835,0.751,0.835
			s0.752-0.367,0.752-0.835c0-0.467-0.332-0.835-0.752-0.835S13.648,367.732,13.648,368.199z M13.994,368.199
			c0-0.28,0.173-0.472,0.405-0.472s0.405,0.191,0.405,0.472s-0.173,0.473-0.405,0.473S13.994,368.479,13.994,368.199z"/>
	</g>
	<g>
		<path fill-rule="evenodd" clip-rule="evenodd" fill="#00C0F3" d="M9.814,513.926v-0.847H7.946l-0.381,2.038h0.163
			c0.223-0.115,0.4-0.165,0.594-0.165c0.36,0,0.766,0.127,0.766,0.594c0,0.456-0.276,0.682-0.682,0.682
			c-0.272,0-0.52-0.072-0.841-0.456H7.462l-0.074,0.923c0.316,0.22,0.652,0.34,1.072,0.34c0.796,0,1.493-0.527,1.493-1.467
			c0-0.686-0.405-1.186-1.103-1.186c-0.148,0-0.276,0.016-0.396,0.043l0.079-0.499H9.814z"/>
		<path fill-rule="evenodd" clip-rule="evenodd" fill="#00C0F3" d="M11.638,517.034c0.341,0,1.315-0.088,1.315-2.032
			s-0.975-2.032-1.315-2.032s-1.315,0.088-1.315,2.032S11.297,517.034,11.638,517.034z M11.638,516.228
			c-0.425,0-0.436-0.726-0.436-1.226s0.011-1.225,0.436-1.225s0.435,0.725,0.435,1.225S12.063,516.228,11.638,516.228z"/>
		<path fill-rule="evenodd" clip-rule="evenodd" fill="#00C0F3" d="M13.648,513.915c0,0.467,0.331,0.834,0.751,0.834
			s0.752-0.367,0.752-0.834c0-0.468-0.332-0.836-0.752-0.836S13.648,513.447,13.648,513.915z M13.994,513.915
			c0-0.281,0.173-0.473,0.405-0.473s0.405,0.191,0.405,0.473c0,0.279-0.173,0.472-0.405,0.472S13.994,514.194,13.994,513.915z"/>
	</g>
	<g>
		<path fill-rule="evenodd" clip-rule="evenodd" fill="#00C0F3" d="M104.354,620.733c0.015,0.302,0.133,1.346,1.28,1.346
			c0.811,0,1.319-0.494,1.319-1.225c0-0.621-0.331-0.901-0.617-0.989v-0.017c0.321-0.088,0.509-0.39,0.509-0.785
			c0-0.747-0.599-1.049-1.177-1.049c-0.276,0-1.107,0.043-1.246,1.213h0.865c-0.01-0.23,0.164-0.406,0.371-0.406
			c0.129,0,0.341,0.066,0.341,0.406c0,0.407-0.316,0.429-0.396,0.429h-0.108v0.659h0.108c0.179,0,0.484,0.012,0.484,0.424
			c0,0.181-0.039,0.532-0.435,0.532c-0.376,0-0.44-0.352-0.435-0.538H104.354z"/>
		<path fill-rule="evenodd" clip-rule="evenodd" fill="#00C0F3" d="M108.638,622.079c0.341,0,1.315-0.088,1.315-2.033
			c0-1.943-0.975-2.031-1.315-2.031s-1.315,0.088-1.315,2.031C107.322,621.991,108.297,622.079,108.638,622.079z M108.638,621.271
			c-0.425,0-0.435-0.726-0.435-1.226c0-0.499,0.01-1.225,0.435-1.225s0.435,0.726,0.435,1.225
			C109.072,620.546,109.063,621.271,108.638,621.271z"/>
		<path fill-rule="evenodd" clip-rule="evenodd" fill="#00C0F3" d="M110.648,618.959c0,0.467,0.331,0.835,0.751,0.835
			c0.421,0,0.752-0.368,0.752-0.835s-0.331-0.835-0.752-0.835C110.979,618.124,110.648,618.492,110.648,618.959z M110.994,618.959
			c0-0.28,0.173-0.473,0.405-0.473s0.405,0.192,0.405,0.473s-0.173,0.472-0.405,0.472S110.994,619.239,110.994,618.959z"/>
	</g>
	<g>
		<path fill-rule="evenodd" clip-rule="evenodd" fill="#00C0F3" d="M83.798,618.124l-0.791,1.279
			c-0.262,0.424-0.381,0.797-0.381,1.28c0,0.847,0.529,1.396,1.325,1.396c0.89,0,1.345-0.654,1.345-1.396
			c0-0.735-0.415-1.263-1.033-1.263c-0.124,0-0.208,0.021-0.287,0.049l0.846-1.346H83.798z M83.941,621.271
			c-0.307,0-0.484-0.253-0.484-0.577c0-0.313,0.178-0.57,0.484-0.57c0.316,0,0.489,0.269,0.489,0.57
			C84.431,621.019,84.238,621.271,83.941,621.271z"/>
		<path fill-rule="evenodd" clip-rule="evenodd" fill="#00C0F3" d="M86.911,622.079c0.341,0,1.314-0.088,1.314-2.033
			c0-1.943-0.974-2.031-1.314-2.031c-0.342,0-1.315,0.088-1.315,2.031C85.596,621.991,86.569,622.079,86.911,622.079z
			 M86.911,621.271c-0.426,0-0.436-0.726-0.436-1.226c0-0.499,0.01-1.225,0.436-1.225c0.425,0,0.435,0.726,0.435,1.225
			C87.346,620.546,87.336,621.271,86.911,621.271z"/>
		<path fill-rule="evenodd" clip-rule="evenodd" fill="#00C0F3" d="M88.921,618.959c0,0.467,0.331,0.835,0.752,0.835
			c0.42,0,0.751-0.368,0.751-0.835s-0.331-0.835-0.751-0.835C89.252,618.124,88.921,618.492,88.921,618.959z M89.268,618.959
			c0-0.28,0.173-0.473,0.405-0.473s0.405,0.192,0.405,0.473s-0.173,0.472-0.405,0.472S89.268,619.239,89.268,618.959z"/>
	</g>
	<g>
		<polygon fill-rule="evenodd" clip-rule="evenodd" fill="#00C0F3" points="219.562,621.97 220.6,621.97 222.191,618.124 
			219.453,618.124 219.453,619.009 220.867,619.009 		"/>
		<path fill-rule="evenodd" clip-rule="evenodd" fill="#00C0F3" d="M223.668,622.079c0.342,0,1.315-0.088,1.315-2.033
			c0-1.943-0.974-2.031-1.315-2.031c-0.341,0-1.314,0.088-1.314,2.031C222.354,621.991,223.327,622.079,223.668,622.079z
			 M223.668,621.271c-0.425,0-0.435-0.726-0.435-1.226c0-0.499,0.01-1.225,0.435-1.225c0.426,0,0.436,0.726,0.436,1.225
			C224.104,620.546,224.094,621.271,223.668,621.271z"/>
		<path fill-rule="evenodd" clip-rule="evenodd" fill="#00C0F3" d="M225.679,618.959c0,0.467,0.331,0.835,0.752,0.835
			c0.42,0,0.751-0.368,0.751-0.835s-0.331-0.835-0.751-0.835C226.01,618.124,225.679,618.492,225.679,618.959z M226.025,618.959
			c0-0.28,0.173-0.473,0.405-0.473s0.405,0.192,0.405,0.473s-0.173,0.472-0.405,0.472S226.025,619.239,226.025,618.959z"/>
	</g>
	<g>
		<path fill-rule="evenodd" clip-rule="evenodd" fill="#00C0F3" d="M340.736,619.926c0.267-0.11,0.499-0.385,0.499-0.852
			c0-0.571-0.381-1.06-1.177-1.06s-1.177,0.488-1.177,1.06c0,0.467,0.232,0.741,0.499,0.852v0.011
			c-0.227,0.071-0.657,0.303-0.657,0.979c0,0.367,0.148,1.164,1.335,1.164s1.335-0.797,1.335-1.164c0-0.676-0.431-0.907-0.657-0.979
			V619.926z M340.059,619.602c-0.153,0-0.356-0.104-0.356-0.412c0-0.346,0.232-0.417,0.356-0.417c0.129,0,0.361,0.076,0.361,0.417
			C340.42,619.486,340.231,619.602,340.059,619.602z M340.059,621.271c-0.277,0-0.43-0.241-0.43-0.494
			c0-0.297,0.202-0.483,0.43-0.483c0.158,0,0.435,0.109,0.435,0.483C340.493,621.03,340.346,621.271,340.059,621.271z"/>
		<path fill-rule="evenodd" clip-rule="evenodd" fill="#00C0F3" d="M343.008,622.079c0.342,0,1.315-0.088,1.315-2.033
			c0-1.943-0.974-2.031-1.315-2.031c-0.341,0-1.314,0.088-1.314,2.031C341.693,621.991,342.667,622.079,343.008,622.079z
			 M343.008,621.271c-0.425,0-0.435-0.726-0.435-1.226c0-0.499,0.01-1.225,0.435-1.225c0.426,0,0.436,0.726,0.436,1.225
			C343.443,620.546,343.434,621.271,343.008,621.271z"/>
		<path fill-rule="evenodd" clip-rule="evenodd" fill="#00C0F3" d="M345.019,618.959c0,0.467,0.331,0.835,0.752,0.835
			c0.42,0,0.751-0.368,0.751-0.835s-0.331-0.835-0.751-0.835C345.35,618.124,345.019,618.492,345.019,618.959z M345.365,618.959
			c0-0.28,0.173-0.473,0.405-0.473s0.405,0.192,0.405,0.473s-0.173,0.472-0.405,0.472S345.365,619.239,345.365,618.959z"/>
	</g>
	<g>
		<path fill-rule="evenodd" clip-rule="evenodd" fill="#00C0F3" d="M445.068,621.97l0.791-1.28c0.262-0.423,0.381-0.797,0.381-1.28
			c0-0.846-0.529-1.395-1.325-1.395c-0.89,0-1.345,0.653-1.345,1.395c0,0.736,0.415,1.264,1.033,1.264
			c0.123,0,0.208-0.021,0.287-0.05l-0.846,1.347H445.068z M444.925,618.821c0.307,0,0.484,0.253,0.484,0.577
			c0,0.313-0.178,0.571-0.484,0.571c-0.316,0-0.489-0.27-0.489-0.571C444.436,619.074,444.628,618.821,444.925,618.821z"/>
		<path fill-rule="evenodd" clip-rule="evenodd" fill="#00C0F3" d="M447.855,622.079c0.341,0,1.314-0.088,1.314-2.033
			c0-1.943-0.974-2.031-1.314-2.031c-0.342,0-1.315,0.088-1.315,2.031C446.54,621.991,447.514,622.079,447.855,622.079z
			 M447.855,621.271c-0.426,0-0.436-0.726-0.436-1.226c0-0.499,0.01-1.225,0.436-1.225c0.425,0,0.435,0.726,0.435,1.225
			C448.29,620.546,448.28,621.271,447.855,621.271z"/>
		<path fill-rule="evenodd" clip-rule="evenodd" fill="#00C0F3" d="M449.865,618.959c0,0.467,0.332,0.835,0.752,0.835
			s0.751-0.368,0.751-0.835s-0.331-0.835-0.751-0.835S449.865,618.492,449.865,618.959z M450.211,618.959
			c0-0.28,0.174-0.473,0.406-0.473s0.405,0.192,0.405,0.473s-0.173,0.472-0.405,0.472S450.211,619.239,450.211,618.959z"/>
	</g>
	<g>
		<path fill-rule="evenodd" clip-rule="evenodd" fill="#00C0F3" d="M9.914,151.28H8.896c0.781-0.89,1.058-1.258,1.058-1.829
			c0-0.648-0.396-1.28-1.261-1.28c-1.053,0-1.305,0.906-1.319,1.461h0.865c0-0.154,0.029-0.653,0.43-0.653
			c0.271,0,0.42,0.247,0.42,0.5c0,0.225-0.094,0.39-0.405,0.791l-1.434,1.857h2.665V151.28z"/>
		<path fill-rule="evenodd" clip-rule="evenodd" fill="#00C0F3" d="M11.638,152.235c0.341,0,1.315-0.088,1.315-2.032
			s-0.975-2.032-1.315-2.032s-1.315,0.088-1.315,2.032S11.297,152.235,11.638,152.235z M11.638,151.428
			c-0.425,0-0.436-0.725-0.436-1.225s0.011-1.225,0.436-1.225s0.435,0.725,0.435,1.225S12.063,151.428,11.638,151.428z"/>
		<path fill-rule="evenodd" clip-rule="evenodd" fill="#00C0F3" d="M13.648,149.115c0,0.467,0.331,0.835,0.751,0.835
			s0.752-0.368,0.752-0.835c0-0.467-0.332-0.835-0.752-0.835S13.648,148.648,13.648,149.115z M13.994,149.115
			c0-0.28,0.173-0.472,0.405-0.472s0.405,0.192,0.405,0.472c0,0.28-0.173,0.473-0.405,0.473S13.994,149.396,13.994,149.115z"/>
	</g>
	<g>
		<path fill-rule="evenodd" clip-rule="evenodd" fill="#00C0F3" d="M482.672,621.97h0.83v-0.924h0.387v-0.807h-0.387v-2.115h-1.142
			l-1.245,2.131v0.791h1.557V621.97z M482.672,620.239h-0.766l0.766-1.346V620.239z"/>
		<path fill-rule="evenodd" clip-rule="evenodd" fill="#00C0F3" d="M485.469,622.079c0.341,0,1.314-0.088,1.314-2.033
			c0-1.943-0.974-2.031-1.314-2.031c-0.342,0-1.315,0.088-1.315,2.031C484.153,621.991,485.127,622.079,485.469,622.079z
			 M485.469,621.271c-0.426,0-0.436-0.726-0.436-1.226c0-0.499,0.01-1.225,0.436-1.225c0.425,0,0.435,0.726,0.435,1.225
			C485.903,620.546,485.894,621.271,485.469,621.271z"/>
		<path fill-rule="evenodd" clip-rule="evenodd" fill="#00C0F3" d="M487.479,618.959c0,0.467,0.332,0.835,0.752,0.835
			s0.752-0.368,0.752-0.835s-0.332-0.835-0.752-0.835S487.479,618.492,487.479,618.959z M487.825,618.959
			c0-0.28,0.173-0.473,0.405-0.473s0.405,0.192,0.405,0.473s-0.173,0.472-0.405,0.472S487.825,619.239,487.825,618.959z"/>
	</g>
	<g>
		<path fill-rule="evenodd" clip-rule="evenodd" fill="#00C0F3" d="M611.44,621.97h0.83v-0.924h0.386v-0.807h-0.386v-2.115h-1.142
			l-1.246,2.131v0.791h1.558V621.97z M611.44,620.239h-0.767l0.767-1.346V620.239z"/>
		<path fill-rule="evenodd" clip-rule="evenodd" fill="#00C0F3" d="M614.236,622.079c0.342,0,1.315-0.088,1.315-2.033
			c0-1.943-0.974-2.031-1.315-2.031c-0.341,0-1.314,0.088-1.314,2.031C612.922,621.991,613.896,622.079,614.236,622.079z
			 M614.236,621.271c-0.425,0-0.435-0.726-0.435-1.226c0-0.499,0.01-1.225,0.435-1.225c0.426,0,0.436,0.726,0.436,1.225
			C614.672,620.546,614.662,621.271,614.236,621.271z"/>
		<path fill-rule="evenodd" clip-rule="evenodd" fill="#00C0F3" d="M616.247,618.959c0,0.467,0.331,0.835,0.752,0.835
			c0.42,0,0.751-0.368,0.751-0.835s-0.331-0.835-0.751-0.835C616.578,618.124,616.247,618.492,616.247,618.959z M616.594,618.959
			c0-0.28,0.173-0.473,0.405-0.473s0.405,0.192,0.405,0.473s-0.173,0.472-0.405,0.472S616.594,619.239,616.594,618.959z"/>
	</g>
	<g>
		<path fill-rule="evenodd" clip-rule="evenodd" fill="#00C0F3" d="M973.454,472.862h0.831v-0.923h0.385v-0.808h-0.385v-2.115
			h-1.143l-1.246,2.132v0.791h1.558V472.862z M973.454,471.132h-0.767l0.767-1.346V471.132z"/>
		<path fill-rule="evenodd" clip-rule="evenodd" fill="#00C0F3" d="M976.25,472.972c0.342,0,1.315-0.088,1.315-2.032
			s-0.974-2.032-1.315-2.032c-0.341,0-1.314,0.088-1.314,2.032S975.909,472.972,976.25,472.972z M976.25,472.165
			c-0.425,0-0.435-0.726-0.435-1.226s0.01-1.226,0.435-1.226c0.426,0,0.436,0.726,0.436,1.226S976.676,472.165,976.25,472.165z"/>
		<path fill-rule="evenodd" clip-rule="evenodd" fill="#00C0F3" d="M978.261,469.852c0,0.468,0.331,0.835,0.752,0.835
			c0.42,0,0.751-0.367,0.751-0.835c0-0.467-0.331-0.835-0.751-0.835C978.592,469.017,978.261,469.385,978.261,469.852z
			 M978.607,469.852c0-0.28,0.173-0.472,0.405-0.472s0.405,0.191,0.405,0.472s-0.173,0.473-0.405,0.473
			S978.607,470.132,978.607,469.852z"/>
	</g>
	<g>
		<polygon fill-rule="evenodd" clip-rule="evenodd" fill="#00C0F3" points="837.396,10.031 838.434,10.031 840.025,6.186 
			837.287,6.186 837.287,7.07 838.701,7.07 		"/>
		<path fill-rule="evenodd" clip-rule="evenodd" fill="#00C0F3" d="M841.502,10.141c0.342,0,1.315-0.088,1.315-2.032
			s-0.974-2.032-1.315-2.032c-0.341,0-1.314,0.088-1.314,2.032S841.161,10.141,841.502,10.141z M841.502,9.333
			c-0.425,0-0.435-0.725-0.435-1.225s0.01-1.225,0.435-1.225c0.426,0,0.436,0.725,0.436,1.225S841.928,9.333,841.502,9.333z"/>
		<path fill-rule="evenodd" clip-rule="evenodd" fill="#00C0F3" d="M843.513,7.021c0,0.467,0.331,0.835,0.751,0.835
			c0.421,0,0.752-0.368,0.752-0.835c0-0.467-0.331-0.835-0.752-0.835C843.844,6.186,843.513,6.554,843.513,7.021z M843.858,7.021
			c0-0.28,0.173-0.472,0.405-0.472s0.406,0.192,0.406,0.472c0,0.28-0.174,0.473-0.406,0.473S843.858,7.301,843.858,7.021z"/>
	</g>
	<g>
		<path fill-rule="evenodd" clip-rule="evenodd" fill="#00C0F3" d="M973.64,18.606l-0.791,1.28c-0.263,0.423-0.381,0.797-0.381,1.28
			c0,0.846,0.529,1.395,1.325,1.395c0.89,0,1.345-0.654,1.345-1.395c0-0.736-0.415-1.264-1.033-1.264
			c-0.124,0-0.208,0.022-0.287,0.049l0.846-1.346H973.64z M973.783,21.753c-0.307,0-0.484-0.252-0.484-0.577
			c0-0.313,0.178-0.571,0.484-0.571c0.316,0,0.489,0.269,0.489,0.571C974.272,21.501,974.08,21.753,973.783,21.753z"/>
		<path fill-rule="evenodd" clip-rule="evenodd" fill="#00C0F3" d="M976.752,22.561c0.342,0,1.315-0.088,1.315-2.033
			c0-1.944-0.974-2.032-1.315-2.032c-0.341,0-1.314,0.088-1.314,2.032C975.438,22.473,976.411,22.561,976.752,22.561z
			 M976.752,21.753c-0.425,0-0.435-0.725-0.435-1.225s0.01-1.225,0.435-1.225c0.426,0,0.436,0.725,0.436,1.225
			S977.178,21.753,976.752,21.753z"/>
		<path fill-rule="evenodd" clip-rule="evenodd" fill="#00C0F3" d="M978.763,19.441c0,0.467,0.331,0.835,0.752,0.835
			c0.42,0,0.751-0.368,0.751-0.835c0-0.467-0.331-0.835-0.751-0.835C979.094,18.606,978.763,18.974,978.763,19.441z M979.109,19.441
			c0-0.28,0.173-0.472,0.405-0.472s0.405,0.192,0.405,0.472c0,0.28-0.173,0.472-0.405,0.472S979.109,19.721,979.109,19.441z"/>
	</g>
	<g>
		<path fill-rule="evenodd" clip-rule="evenodd" fill="#00C0F3" d="M810.918,566.134h0.83v-0.924h0.386v-0.807h-0.386v-2.115h-1.142
			l-1.246,2.131v0.791h1.558V566.134z M810.918,564.403h-0.767l0.767-1.346V564.403z"/>
		<path fill-rule="evenodd" clip-rule="evenodd" fill="#00C0F3" d="M813.714,566.243c0.342,0,1.315-0.088,1.315-2.032
			s-0.974-2.032-1.315-2.032c-0.341,0-1.314,0.088-1.314,2.032S813.373,566.243,813.714,566.243z M813.714,565.436
			c-0.425,0-0.435-0.725-0.435-1.225s0.01-1.226,0.435-1.226c0.426,0,0.436,0.726,0.436,1.226S814.14,565.436,813.714,565.436z"/>
		<path fill-rule="evenodd" clip-rule="evenodd" fill="#00C0F3" d="M815.725,563.123c0,0.467,0.331,0.835,0.752,0.835
			c0.42,0,0.751-0.368,0.751-0.835s-0.331-0.835-0.751-0.835C816.056,562.288,815.725,562.656,815.725,563.123z M816.07,563.123
			c0-0.28,0.174-0.472,0.406-0.472s0.405,0.191,0.405,0.472s-0.173,0.473-0.405,0.473S816.07,563.403,816.07,563.123z"/>
	</g>
	<g>
		<polygon fill-rule="evenodd" clip-rule="evenodd" fill="#00C0F3" points="731.951,534.159 732.846,534.159 732.846,530.313 
			731.422,530.313 731.422,531.198 731.951,531.198 		"/>
		<path fill-rule="evenodd" clip-rule="evenodd" fill="#00C0F3" d="M736.379,533.313h-1.019c0.781-0.891,1.059-1.258,1.059-1.83
			c0-0.647-0.396-1.279-1.261-1.279c-1.053,0-1.306,0.906-1.32,1.461h0.865c0-0.153,0.029-0.653,0.43-0.653
			c0.272,0,0.421,0.247,0.421,0.5c0,0.226-0.095,0.39-0.405,0.791l-1.434,1.856h2.664V533.313z"/>
		<path fill-rule="evenodd" clip-rule="evenodd" fill="#00C0F3" d="M738.103,534.269c0.342,0,1.315-0.088,1.315-2.032
			s-0.974-2.032-1.315-2.032c-0.341,0-1.314,0.088-1.314,2.032S737.762,534.269,738.103,534.269z M738.103,533.462
			c-0.425,0-0.435-0.726-0.435-1.226c0-0.499,0.01-1.225,0.435-1.225c0.426,0,0.436,0.726,0.436,1.225
			C738.538,532.736,738.528,533.462,738.103,533.462z"/>
		<path fill-rule="evenodd" clip-rule="evenodd" fill="#00C0F3" d="M740.113,531.149c0,0.467,0.331,0.834,0.752,0.834
			c0.42,0,0.751-0.367,0.751-0.834s-0.331-0.836-0.751-0.836C740.444,530.313,740.113,530.683,740.113,531.149z M740.459,531.149
			c0-0.281,0.174-0.473,0.406-0.473s0.405,0.191,0.405,0.473c0,0.279-0.173,0.472-0.405,0.472S740.459,531.429,740.459,531.149z"/>
	</g>
	<g>
		<polygon fill-rule="evenodd" clip-rule="evenodd" fill="#00C0F3" points="638.78,534.151 639.675,534.151 639.675,530.307 
			638.251,530.307 638.251,531.19 638.78,531.19 		"/>
		<polygon fill-rule="evenodd" clip-rule="evenodd" fill="#00C0F3" points="641.73,534.151 642.625,534.151 642.625,530.307 
			641.201,530.307 641.201,531.19 641.73,531.19 		"/>
		<path fill-rule="evenodd" clip-rule="evenodd" fill="#00C0F3" d="M644.932,534.262c0.342,0,1.315-0.088,1.315-2.032
			c0-1.945-0.974-2.033-1.315-2.033c-0.341,0-1.314,0.088-1.314,2.033C643.617,534.174,644.591,534.262,644.932,534.262z
			 M644.932,533.454c-0.425,0-0.435-0.725-0.435-1.225s0.01-1.226,0.435-1.226c0.426,0,0.436,0.726,0.436,1.226
			S645.357,533.454,644.932,533.454z"/>
		<path fill-rule="evenodd" clip-rule="evenodd" fill="#00C0F3" d="M646.942,531.142c0,0.467,0.331,0.835,0.752,0.835
			c0.42,0,0.751-0.368,0.751-0.835s-0.331-0.835-0.751-0.835C647.273,530.307,646.942,530.675,646.942,531.142z M647.289,531.142
			c0-0.28,0.173-0.473,0.405-0.473s0.405,0.192,0.405,0.473s-0.173,0.473-0.405,0.473S647.289,531.422,647.289,531.142z"/>
	</g>
	<g>
		<polygon fill-rule="evenodd" clip-rule="evenodd" fill="#00C0F3" points="548.28,534.339 549.176,534.339 549.176,530.494 
			547.752,530.494 547.752,531.378 548.28,531.378 		"/>
		<path fill-rule="evenodd" clip-rule="evenodd" fill="#00C0F3" d="M551.482,534.449c0.341,0,1.314-0.088,1.314-2.032
			c0-1.945-0.974-2.033-1.314-2.033s-1.315,0.088-1.315,2.033C550.167,534.361,551.142,534.449,551.482,534.449z M551.482,533.642
			c-0.426,0-0.436-0.725-0.436-1.225s0.01-1.226,0.436-1.226c0.425,0,0.436,0.726,0.436,1.226S551.907,533.642,551.482,533.642z"/>
		<path fill-rule="evenodd" clip-rule="evenodd" fill="#00C0F3" d="M554.432,534.449c0.342,0,1.315-0.088,1.315-2.032
			c0-1.945-0.974-2.033-1.315-2.033c-0.341,0-1.314,0.088-1.314,2.033C553.117,534.361,554.091,534.449,554.432,534.449z
			 M554.432,533.642c-0.425,0-0.435-0.725-0.435-1.225s0.01-1.226,0.435-1.226c0.426,0,0.436,0.726,0.436,1.226
			S554.857,533.642,554.432,533.642z"/>
		<path fill-rule="evenodd" clip-rule="evenodd" fill="#00C0F3" d="M556.442,531.329c0,0.467,0.331,0.835,0.752,0.835
			c0.42,0,0.751-0.368,0.751-0.835s-0.331-0.835-0.751-0.835C556.773,530.494,556.442,530.862,556.442,531.329z M556.789,531.329
			c0-0.28,0.173-0.473,0.405-0.473s0.405,0.192,0.405,0.473s-0.173,0.473-0.405,0.473S556.789,531.609,556.789,531.329z"/>
	</g>
	<g>
		<path fill-rule="evenodd" clip-rule="evenodd" fill="#00C0F3" d="M457.695,534.589l0.791-1.279
			c0.263-0.424,0.381-0.797,0.381-1.28c0-0.846-0.528-1.396-1.324-1.396c-0.891,0-1.346,0.654-1.346,1.396
			c0,0.736,0.416,1.264,1.034,1.264c0.123,0,0.207-0.022,0.286-0.05l-0.846,1.346H457.695z M457.553,531.441
			c0.307,0,0.484,0.253,0.484,0.577c0,0.313-0.178,0.571-0.484,0.571c-0.316,0-0.49-0.27-0.49-0.571
			C457.063,531.694,457.256,531.441,457.553,531.441z"/>
		<path fill-rule="evenodd" clip-rule="evenodd" fill="#00C0F3" d="M460.482,534.699c0.342,0,1.315-0.088,1.315-2.032
			c0-1.945-0.974-2.033-1.315-2.033c-0.341,0-1.314,0.088-1.314,2.033C459.168,534.611,460.142,534.699,460.482,534.699z
			 M460.482,533.892c-0.425,0-0.436-0.725-0.436-1.225s0.011-1.226,0.436-1.226c0.426,0,0.436,0.726,0.436,1.226
			S460.908,533.892,460.482,533.892z"/>
		<path fill-rule="evenodd" clip-rule="evenodd" fill="#00C0F3" d="M462.493,531.579c0,0.467,0.331,0.835,0.751,0.835
			c0.421,0,0.752-0.368,0.752-0.835s-0.331-0.835-0.752-0.835C462.824,530.744,462.493,531.112,462.493,531.579z M462.839,531.579
			c0-0.28,0.173-0.473,0.405-0.473s0.406,0.192,0.406,0.473s-0.174,0.473-0.406,0.473S462.839,531.859,462.839,531.579z"/>
	</g>
	<g>
		<path fill-rule="evenodd" clip-rule="evenodd" fill="#00C0F3" d="M363.46,530.546c0.267-0.109,0.499-0.385,0.499-0.852
			c0-0.571-0.38-1.061-1.176-1.061c-0.797,0-1.177,0.489-1.177,1.061c0,0.467,0.232,0.742,0.499,0.852v0.011
			c-0.228,0.071-0.657,0.302-0.657,0.978c0,0.368,0.147,1.165,1.335,1.165c1.186,0,1.334-0.797,1.334-1.165
			c0-0.676-0.43-0.906-0.657-0.978V530.546z M362.783,530.222c-0.153,0-0.356-0.104-0.356-0.412c0-0.346,0.232-0.418,0.356-0.418
			c0.128,0,0.36,0.078,0.36,0.418C363.144,530.106,362.956,530.222,362.783,530.222z M362.783,531.892
			c-0.277,0-0.431-0.242-0.431-0.494c0-0.297,0.203-0.483,0.431-0.483c0.158,0,0.435,0.109,0.435,0.483
			C363.218,531.649,363.069,531.892,362.783,531.892z"/>
		<path fill-rule="evenodd" clip-rule="evenodd" fill="#00C0F3" d="M365.732,532.699c0.342,0,1.315-0.088,1.315-2.032
			c0-1.945-0.974-2.033-1.315-2.033c-0.341,0-1.314,0.088-1.314,2.033C364.418,532.611,365.392,532.699,365.732,532.699z
			 M365.732,531.892c-0.425,0-0.435-0.725-0.435-1.225s0.01-1.226,0.435-1.226c0.426,0,0.436,0.726,0.436,1.226
			S366.158,531.892,365.732,531.892z"/>
		<path fill-rule="evenodd" clip-rule="evenodd" fill="#00C0F3" d="M367.743,529.579c0,0.467,0.331,0.835,0.751,0.835
			c0.421,0,0.752-0.368,0.752-0.835s-0.331-0.835-0.752-0.835C368.074,528.744,367.743,529.112,367.743,529.579z M368.09,529.579
			c0-0.28,0.172-0.473,0.404-0.473s0.406,0.192,0.406,0.473s-0.174,0.473-0.406,0.473S368.09,529.859,368.09,529.579z"/>
	</g>
	<g>
		<polygon fill-rule="evenodd" clip-rule="evenodd" fill="#00C0F3" points="260.626,532.339 261.664,532.339 263.256,528.494 
			260.518,528.494 260.518,529.378 261.932,529.378 		"/>
		<path fill-rule="evenodd" clip-rule="evenodd" fill="#00C0F3" d="M264.732,532.449c0.342,0,1.315-0.088,1.315-2.032
			c0-1.945-0.974-2.033-1.315-2.033c-0.341,0-1.314,0.088-1.314,2.033C263.418,532.361,264.392,532.449,264.732,532.449z
			 M264.732,531.642c-0.425,0-0.435-0.725-0.435-1.225s0.01-1.226,0.435-1.226c0.426,0,0.436,0.726,0.436,1.226
			S265.158,531.642,264.732,531.642z"/>
		<path fill-rule="evenodd" clip-rule="evenodd" fill="#00C0F3" d="M266.743,529.329c0,0.467,0.331,0.835,0.752,0.835
			c0.42,0,0.751-0.368,0.751-0.835s-0.331-0.835-0.751-0.835C267.074,528.494,266.743,528.862,266.743,529.329z M267.09,529.329
			c0-0.28,0.173-0.473,0.405-0.473c0.231,0,0.405,0.192,0.405,0.473s-0.174,0.473-0.405,0.473
			C267.263,529.802,267.09,529.609,267.09,529.329z"/>
	</g>
	<g>
		<path fill-rule="evenodd" clip-rule="evenodd" fill="#00C0F3" d="M142.12,528.994l-0.791,1.28
			c-0.263,0.422-0.381,0.796-0.381,1.279c0,0.846,0.529,1.396,1.325,1.396c0.89,0,1.345-0.653,1.345-1.396
			c0-0.736-0.416-1.264-1.033-1.264c-0.124,0-0.208,0.022-0.287,0.05l0.846-1.346H142.12z M142.264,532.142
			c-0.307,0-0.485-0.253-0.485-0.576c0-0.313,0.179-0.572,0.485-0.572c0.316,0,0.489,0.27,0.489,0.572
			C142.753,531.889,142.56,532.142,142.264,532.142z"/>
		<path fill-rule="evenodd" clip-rule="evenodd" fill="#00C0F3" d="M145.232,532.949c0.342,0,1.315-0.088,1.315-2.032
			c0-1.945-0.974-2.033-1.315-2.033c-0.341,0-1.314,0.088-1.314,2.033C143.918,532.861,144.892,532.949,145.232,532.949z
			 M145.232,532.142c-0.425,0-0.435-0.725-0.435-1.225s0.01-1.226,0.435-1.226c0.426,0,0.436,0.726,0.436,1.226
			S145.658,532.142,145.232,532.142z"/>
		<path fill-rule="evenodd" clip-rule="evenodd" fill="#00C0F3" d="M147.243,529.829c0,0.467,0.331,0.835,0.752,0.835
			c0.42,0,0.751-0.368,0.751-0.835s-0.331-0.835-0.751-0.835C147.574,528.994,147.243,529.362,147.243,529.829z M147.59,529.829
			c0-0.28,0.173-0.473,0.405-0.473s0.405,0.192,0.405,0.473s-0.173,0.473-0.405,0.473S147.59,530.109,147.59,529.829z"/>
	</g>
	<g>
		<path fill-rule="evenodd" clip-rule="evenodd" fill="#00C0F3" d="M214.937,533.089h0.83v-0.922h0.386v-0.809h-0.386v-2.114h-1.142
			l-1.246,2.132v0.791h1.558V533.089z M214.937,531.358h-0.767l0.767-1.346V531.358z"/>
		<path fill-rule="evenodd" clip-rule="evenodd" fill="#00C0F3" d="M217.732,533.199c0.342,0,1.315-0.088,1.315-2.032
			c0-1.945-0.974-2.033-1.315-2.033c-0.341,0-1.314,0.088-1.314,2.033C216.418,533.111,217.392,533.199,217.732,533.199z
			 M217.732,532.392c-0.425,0-0.435-0.725-0.435-1.225s0.01-1.226,0.435-1.226c0.426,0,0.436,0.726,0.436,1.226
			S218.158,532.392,217.732,532.392z"/>
		<path fill-rule="evenodd" clip-rule="evenodd" fill="#00C0F3" d="M219.743,530.079c0,0.467,0.331,0.835,0.752,0.835
			c0.42,0,0.751-0.368,0.751-0.835s-0.331-0.835-0.751-0.835C220.074,529.244,219.743,529.612,219.743,530.079z M220.09,530.079
			c0-0.28,0.173-0.473,0.405-0.473c0.231,0,0.405,0.192,0.405,0.473s-0.174,0.473-0.405,0.473
			C220.263,530.552,220.09,530.359,220.09,530.079z"/>
	</g>
</g>
</svg>
