<?xml version="1.0" encoding="utf-8"?>
<!-- Generator: Adobe Illustrator 16.0.3, SVG Export Plug-In . SVG Version: 6.00 Build 0)  -->
<!DOCTYPE svg PUBLIC "-//W3C//DTD SVG 1.1//EN" "http://www.w3.org/Graphics/SVG/1.1/DTD/svg11.dtd">
<svg version="1.1" id="ОТКРЫТИЯ" xmlns="http://www.w3.org/2000/svg" xmlns:xlink="http://www.w3.org/1999/xlink" x="0px"
	 y="0px" width="3646.566px" height="2372.037px" viewBox="0 0 3646.566 2372.037" enable-background="new 0 0 3646.566 2372.037"
	 xml:space="preserve">
<g id="Марко_Поло">
	<path fill="none" d="M2238.83,764.766c3.317,0.486,114.512,10.68,143.404-72.702"/>
	
		<text transform="matrix(0.9978 -0.0706 0.0707 0.9975 2259.4458 765.5015)" fill="#00A650" font-family="'Arial-Black'" font-size="19">М</text>
	
		<text transform="matrix(0.9898 -0.1445 0.1446 0.9895 2277.3491 764.1421)" fill="#00A650" font-family="'Arial-Black'" font-size="19">а</text>
	
		<text transform="matrix(0.9778 -0.2107 0.2107 0.9775 2289.8784 762.3213)" fill="#00A650" font-family="'Arial-Black'" font-size="19">р</text>
	
		<text transform="matrix(0.9596 -0.2821 0.2822 0.9594 2302.2876 759.6465)" fill="#00A650" font-family="'Arial-Black'" font-size="19">к</text>
	
		<text transform="matrix(0.9329 -0.3608 0.3608 0.9326 2314.0073 756.2222)" fill="#00A650" font-family="'Arial-Black'" font-size="19">о</text>
	
		<text transform="matrix(0.9049 -0.4262 0.4262 0.9047 2325.8062 751.5435)" fill="#00A650" font-family="'Arial-Black'" font-size="19"> </text>
	
		<text transform="matrix(0.8622 -0.507 0.507 0.862 2331.6382 749.0474)" fill="#00A650" font-family="'Arial-Black'" font-size="19">П</text>
	
		<text transform="matrix(0.7881 -0.6159 0.6159 0.7879 2345.2661 740.9302)" fill="#00A650" font-family="'Arial-Black'" font-size="19">о</text>
	
		<text transform="matrix(0.6995 -0.7149 0.7149 0.6993 2355.2827 733.1553)" fill="#00A650" font-family="'Arial-Black'" font-size="19">л</text>
	
		<text transform="matrix(0.5934 -0.8052 0.8051 0.5932 2364.7964 723.3867)" fill="#00A650" font-family="'Arial-Black'" font-size="19">о</text>
	
		<text transform="matrix(0.9543 0.2984 -0.2985 0.9544 2331.4185 1115.9492)" fill="#00A650" font-family="'Arial-Black'" font-size="14.0005">Марко Поло</text>
	<text transform="matrix(1 0 0 1 2389.5161 672.5649)" fill="#00A650" font-family="'Arial-Black'" font-size="18">1275</text>
	<text transform="matrix(1 0 0 1 1528.0796 661.2798)" fill="#00A650" font-family="'Arial-Black'" font-size="19">1271</text>
	
		<text transform="matrix(0.3039 0.9527 -0.9527 0.3039 1611.1362 739.5923)" fill="#00A650" font-family="'Arial-Black'" font-size="20">1295</text>
	<polygon fill="#00A33D" points="2477.422,765.852 2470.945,758.827 2465.272,771.469 	"/>
	<polygon fill="#00A33D" points="2487.62,850.498 2478.265,848.639 2481.18,862.169 	"/>
	<polygon fill="#00A33D" points="2385.725,867.279 2392.838,873.591 2397.254,860.548 	"/>
	<polygon fill="#00A33D" points="2456.25,673.454 2456.305,682.999 2468.961,677.575 	"/>
	<polygon fill="#00A33D" points="2504.245,725.435 2510.303,732.809 2516.709,720.62 	"/>
	<polygon fill="#00A33D" points="2046.419,766.574 2046.557,776.129 2059.204,770.392 	"/>
	<polygon fill="#00A33D" points="1833.911,760.597 1824.696,763.139 1833.416,773.946 	"/>
	<polygon fill="#00A33D" points="1898.532,762.498 1906.243,756.765 1894.135,749.901 	"/>
	<polygon fill="#00A33D" points="2057.208,948.973 2064.919,943.24 2052.811,936.376 	"/>
	<polygon fill="#00A33D" points="2151.317,1081.132 2160.4,1078.013 2151.011,1067.772 	"/>
	<polygon fill="#00A33D" points="2323.614,1124.643 2326.991,1115.652 2313.116,1116.374 	"/>
	<polygon fill="#00A33D" points="2567.735,1086.268 2558.434,1083.903 2560.678,1097.617 	"/>
	<polygon fill="#00A33D" points="2593.808,782.546 2584.777,785.813 2594.277,795.939 	"/>
	<polygon fill="#00A33D" points="1711.687,717.684 1704.065,711.828 1700.75,725.378 	"/>
	<polygon fill="#00A33D" points="1594.39,681.135 1596.773,674.922 1588.638,669.063 	"/>
	<polygon fill="#00A33D" points="1759.793,798.662 1769.266,799.911 1765.436,786.56 	"/>
	<polygon fill="#00A33D" points="1724.145,782.983 1717.498,789.833 1730.523,794.707 	"/>
	<polygon fill="#00A33D" points="1620.112,681.696 1612.491,687.442 1624.614,694.26 	"/>
	<path fill="none" stroke="#00A33D" stroke-width="3" d="M2485.836,677.481c0,0-114.781,3.441-120.781,10.107
		c0,0-37,47.333-55.666,51.667c0,0-23,3.667-37-1.667s-67.334-16-81.668-5.667l-32.332,11.333c0,0-51.334,12-63,12
		c0,0-19.668,4.667-23.334,9c0,0-6.666,7-25.334,6.667l-37.666,2"/>
	<path fill="none" stroke="#00A33D" stroke-width="3" d="M2008.208,771.81c0,0-40.334-7.334-55.668,20.333c0,0-9.334,31,6,44.667
		c0,0,46.478,52.584,26.145,65.25c0,0-20.62-1.581-44.811-12.584c0,0-10-4-18.334-15.333c0,0-20.998-25.667-22.332-29.333
		c0,0-9.002-11.667-14.334-14.667c0,0-12-9-13-11c0,0-7.666-12-15.666-16.333c0,0-16.002-11.333-17.668-21.667l-6.332-14.667
		c0,0-3.666-9.667-2.334-16c0,0,5-26-25.667-17.667c0,0-10.333,8.333-13,16.667c0,0-4.667,7.333-12.667,12c0,0-8.999,7.667-8.666,25
		c0,0-12.947,19.262-10.614,32.928"/>
	<path fill="none" stroke="#00A33D" stroke-width="3" d="M1617.208,685.693c0,0-12.667-19.333-37-32"/>
	<path fill="none" stroke="#00A33D" stroke-width="3" d="M1759.26,819.404c0,0-43.347-44.387-77.015-47.053
		c0,0-25.031,5.451-38-16.333c-7.376-12.389-10.989-49.531-11.098-48.444c0,0-4.569-8.889-9.902-13.889"/>
	<path fill="none" stroke="#00A33D" stroke-width="3" stroke-dasharray="8,5" d="M1580.57,656.729c0,0,24.868,32.58,32.637,38.931
		c17.005,13.901,17.393,58.727,17.393,44.758c0,0,10.411,29.829,15.411,36.496c0,0,19.812,14.132,43.146-34.868
		c0,0,10.232-25.851,28.899-29.851c0,0,17.327-21.954,13.994-16.287c-0.531,0.367,52.587-66.391,75.11,7.532l20.672,8.865
		c0,0,43.688,11.292,73.688,45.625c0,0,31.333,28,37.333,56.667c0,0,15.666,40.334,33.333,47.667c0,0,19.667,10.333,13.667,28.667
		c0,0-6.667,9,30.333,20.333l19,8.333l12.334,13.667c0,0,41.334,47,76,29"/>
	<path fill="none" stroke="#00A33D" stroke-width="3" stroke-dasharray="8,5" d="M2122.729,966.622c0,0-21.666,35,36.668,54"/>
	<path fill="none" stroke="#00A33D" stroke-width="3" stroke-dasharray="8,5" d="M2161.669,1023.083
		c0,0-30.283,73.146,25.958,96.442"/>
	<path fill="none" stroke="#00A33D" stroke-width="3" stroke-dasharray="8,5" d="M2187.804,1119.525
		c0,0,22.099,40.611,38.076,15.491c0,0,8.159-37.262,24.817-31.819c0,0,36.375,0.837,59.153,11.304"/>
	<path fill="none" stroke="#00A33D" stroke-width="3" stroke-dasharray="8,5" d="M2309.851,1114.501
		c0,0,92.147,28.647,96.286,29.503c0,0,40.812,19.824,42.931,30.557l17.242,25.034c0,0,14.399,26.71,39.091,35.218
		c0,0,29.377,18.177,33.628-20.579c0,0,12.121-33.061,12.147-57.044"/>
	<path fill="none" stroke="#00A33D" stroke-width="3" stroke-dasharray="8,5" d="M2560.396,1095.221c0,0,28.997-85,28.33-139"/>
	<path fill="none" stroke="#00A33D" stroke-width="3" stroke-dasharray="8,5" d="M2588.274,960.605c0,0-13.334-76,10.67-103.999
		c0,0,7-48.333-4.667-60.667l-15-29.667c0,0-13.335-23.333-26-26.666c0,0-20.334-13.667-22-32c0,0-5-20.667-13.333-27.667
		c0,0-15.668-26.333,19.666-58"/>
	<path fill="none" stroke="#00A33D" stroke-width="3" d="M2485.836,677.481c0,0,31.333-3.333,31.333,10.667
		c0,0,15.666,23.667,2,31.667l-10.667,9.667c0,0-35,29.333-37,35.667l-22.333,25"/>
	<path fill="none" stroke="#00A33D" stroke-width="3" d="M2412.891,825.169c0,0,6.716-21.521,15.354-24.362
		c0,0,18.712-21.521,23.99-6.091l11.516,23.551c0,0,22.832,15.071,19.492,29.379c-0.083,0.358-0.183,0.716-0.3,1.073
		c-4.798,14.617,3.36,20.302-16.792,30.859c0,0-30.71,1.624-39.347,12.993l-12.954,10.557c0,0-9.117,4.061-10.077,20.302
		c0,0,1.438,28.016-18.233,32.077l-26.389,11.775c0,0-20.151-23.55-9.116-49.942c0,0,18.233-31.672,33.106-39.792
		C2383.141,877.548,2410.493,853.591,2412.891,825.169z"/>
	
		<line fill="none" stroke="#00A33D" stroke-width="3" stroke-dasharray="8,5" x1="2560.396" y1="1095.221" x2="2551.92" y2="1160.96"/>
</g>
</svg>
