<?xml version="1.0" encoding="utf-8"?>
<!-- Generator: Adobe Illustrator 16.0.3, SVG Export Plug-In . SVG Version: 6.00 Build 0)  -->
<!DOCTYPE svg PUBLIC "-//W3C//DTD SVG 1.1//EN" "http://www.w3.org/Graphics/SVG/1.1/DTD/svg11.dtd">
<svg version="1.1" id="ОТКРЫТИЯ" xmlns="http://www.w3.org/2000/svg" xmlns:xlink="http://www.w3.org/1999/xlink" x="0px"
	 y="0px" width="3646.566px" height="2372.037px" viewBox="0 0 3646.566 2372.037" enable-background="new 0 0 3646.566 2372.037"
	 xml:space="preserve">
<g id="Семен_Дежнев">
	
		<path fill="none" stroke="#F0037F" stroke-width="3.5717" stroke-miterlimit="3.8637" stroke-dasharray="29.7638,7.0866,4.252,7.0866" d="
		M2809.543,194.221c9.885,0.908,8.102,2.064,13.578,2.971c13.076,2.166,31.375,8.567,38.463,12.018
		c6.191,3.014,10.121,10.366,13.543,13.771c3.604,7.179,12.378,29.07,7.181,41.279c-5.196,12.208-13.671,30.283-20.724,37.335
		s-37.223,48.479-43.16,49.964c-38.131,9.535-25.85-36.659-8.979-19.788c3.713,3.711,1.451-16.045,3.803-30.177
		c2.365-14.219,1.113-12.009,0-16.092c-1.113-4.083-5.66-1.626-10.914-7.991c-3.072-3.722-28.178-3.926-28.178-3.926"/>
	<g>
		<path fill-rule="evenodd" clip-rule="evenodd" fill="#F0037F" d="M2630.204,192.93l1.369,4.48l1.734-0.53l-0.911-2.98l8.075-2.469
			l0.909,2.98l1.734-0.53l-1.369-4.479l-1.554,0.476l-3.408-11.146l-6.646,2.032c0.602,1.969,1.108,3.69,1.443,5.82
			c0.264,1.638,0.412,4.318,0.104,5.895L2630.204,192.93z M2635.508,180.761l2.951,9.646l-4.986,1.524
			c0.613-2.519-0.219-7.301-1.144-10.198L2635.508,180.761z"/>
		<polygon fill-rule="evenodd" clip-rule="evenodd" fill="#F0037F" points="2648.307,177.542 2647.954,176.014 2640.665,177.697 
			2643.641,190.58 2651.646,188.732 2651.293,187.205 2645.055,188.645 2643.993,184.043 2648.667,182.964 2648.313,181.437 
			2643.639,182.516 2642.786,178.817 		"/>
		<path fill-rule="evenodd" clip-rule="evenodd" fill="#F0037F" d="M2660.67,180.629c0.127-0.041,0.254-0.083,0.385-0.105
			c1.861-0.328,2.623,0.842,3.873,2.386c1.445,1.778,2.303,3.162,3.621,3.025c0.113-0.021,0.242-0.043,0.354-0.063
			c0.276-0.068,0.404-0.109,0.526-0.17l-0.251-1.433c-0.094,0.017-0.168,0.03-0.262,0.046c-1.039,0.088-1.447-1.145-3.16-3.24
			c-0.759-0.921-1.529-1.706-2.846-1.665l-0.013-0.075c1.175-0.303,1.622-1.571,1.832-2.222c0.818-2.427,0.605-3.099,1.692-3.349
			c0.074-0.013,0.148-0.025,0.224-0.039l-0.25-1.413c-0.235-0.035-0.358,0.024-0.564,0.061c-1.003,0.178-1.469,0.048-2.632,3.668
			c-0.881,2.726-1.049,2.755-2.443,3.001c-0.111,0.02-0.243,0.042-0.354,0.062l-0.936-5.301l-1.786,0.314l0.935,5.302
			c-0.111,0.02-0.24,0.042-0.354,0.063c-1.602,0.263-1.492,0.34-3.744-2.524c-1.926-2.441-2.525-2.144-3.307-2.006
			c-0.205,0.036-0.342,0.021-0.551,0.136l0.248,1.414c0.074-0.014,0.148-0.026,0.225-0.04c1.068-0.131,1.015,0.435,2.734,2.567
			c0.446,0.573,1.271,1.56,2.464,1.465l0.013,0.074c-1.119,0.39-1.674,1.273-2.104,2.538c-0.951,2.757-0.891,3.859-1.843,4.122
			c-0.093,0.017-0.168,0.03-0.259,0.047l0.252,1.432c0.137,0.015,0.27,0.01,0.553-0.021c0.111-0.02,0.242-0.042,0.353-0.063
			c1.212-0.309,1.522-1.706,2.35-4.077c0.647-1.879,1.019-3.249,2.843-3.57c0.129-0.022,0.264-0.027,0.396-0.031l1.094,6.194
			l1.784-0.315L2660.67,180.629z"/>
		<polygon fill-rule="evenodd" clip-rule="evenodd" fill="#F0037F" points="2671.907,179.309 2677.663,178.602 2678.403,184.621 
			2680.202,184.4 2678.59,171.276 2676.79,171.497 2677.471,177.046 2671.715,177.753 2671.034,172.204 2669.235,172.424 
			2670.845,185.548 2672.646,185.328 		"/>
		<path fill-rule="evenodd" clip-rule="evenodd" fill="#F0037F" d="M2689.42,171.89l-0.137-1.562l-7.452,0.652l1.155,13.172
			l8.184-0.716l-0.137-1.563l-6.379,0.559l-0.41-4.704l4.779-0.418l-0.137-1.563l-4.779,0.418l-0.332-3.781L2689.42,171.89z
			 M2682.436,168.765c0.057,0.659,0.609,1.123,1.268,1.065c0.658-0.058,1.104-0.609,1.047-1.268c-0.066-0.752-0.742-1.11-1.25-1.066
			C2683.029,167.538,2682.366,167.975,2682.436,168.765z M2686.254,168.432c0.042,0.47,0.479,1.133,1.27,1.064
			c0.657-0.058,1.122-0.61,1.064-1.268c-0.068-0.791-0.799-1.106-1.27-1.065C2686.7,167.217,2686.202,167.811,2686.254,168.432z"/>
		<path fill-rule="evenodd" clip-rule="evenodd" fill="#F0037F" d="M2693.168,183.309l5.672-0.396
			c3.504-0.245,3.816-2.823,3.722-4.16c-0.116-1.678-1.487-2.869-3.083-2.947l-0.012-0.15c0.85-0.324,1.926-1.176,1.791-3.099
			c-0.203-2.901-3.135-2.848-4.867-2.727l-4.146,0.29L2693.168,183.309z M2694.164,171.557l2.675-0.188
			c1.979-0.139,2.488,0.641,2.564,1.733c0.105,1.488-0.861,2.029-2.727,2.159l-2.242,0.157L2694.164,171.557z M2694.543,176.984
			l2.412-0.169c0.828-0.058,3.5-0.302,3.664,2.035c0.1,1.432-0.645,2.412-2.982,2.575l-2.77,0.193L2694.543,176.984z"/>
		<path fill-rule="evenodd" clip-rule="evenodd" fill="#F0037F" d="M2725.944,171.771l0.178,10.142l1.756-0.03l-0.232-13.22
			l-1.34,0.023c-0.414,1.16-2.146,2.588-3.063,3.133l0.797,1.252C2724.79,172.717,2725.178,172.351,2725.944,171.771z"/>
		<path fill-rule="evenodd" clip-rule="evenodd" fill="#F0037F" d="M2733.33,174.417c0-0.17,0-0.34,0-0.51
			c0.038-1.171,0.434-4.175,2.266-4.175c0.944,0,1.247,0.416,1.89,1.19l1.189-0.774c-0.926-1.7-2.285-1.87-3.154-1.87
			c-2.645,0-3.984,3.192-3.984,7.14c0,6.271,2.834,6.687,3.891,6.687c2.381,0,3.703-1.869,3.703-4.684
			c0-2.701-1.436-4.307-3.42-4.307C2735.276,173.114,2734.293,173.208,2733.33,174.417z M2735.407,174.682
			c0.795,0,1.907,0.472,1.908,3.041c0,1.114-0.283,3.041-1.906,3.041c-1.455,0-1.891-1.511-1.891-3.041
			C2733.518,175.475,2734.311,174.682,2735.407,174.682z"/>
		<path fill-rule="evenodd" clip-rule="evenodd" fill="#F0037F" d="M2746.663,178.931v2.814h1.756v-2.814h1.152v-1.511h-1.152
			v-8.896h-1.606l-5.495,8.896v1.511H2746.663z M2746.663,177.42h-3.854l3.852-6.366L2746.663,177.42z"/>
		<path fill-rule="evenodd" clip-rule="evenodd" fill="#F0037F" d="M2753.442,174.677c-1.447,0.598-2.164,1.681-2.196,3.494
			c-0.016,0.869,0.157,4.008,3.708,4.069c2.568,0.046,3.807-1.652,3.848-3.938c0.018-1.096-0.199-2.762-2.074-3.569
			c0.725-0.289,1.852-1.025,1.879-2.668c0.031-1.795-0.918-3.605-3.412-3.649c-2.475-0.043-3.486,1.733-3.518,3.528
			C2751.655,173.134,2752.317,174.185,2753.442,174.677z M2755.069,175.575c0.682,0.012,1.959,0.355,1.918,2.716
			c-0.041,2.398-1.48,2.6-2.01,2.591c-0.793-0.014-1.955-0.544-1.918-2.659C2753.1,175.861,2754.464,175.564,2755.069,175.575z
			 M2755.169,169.852c0.452,0.008,1.622,0.142,1.589,2.068c-0.02,1.114-0.416,2.202-1.663,2.181
			c-1.208-0.021-1.604-1.123-1.585-2.238C2753.528,170.843,2753.979,169.832,2755.169,169.852z"/>
	</g>
	<polygon fill="#F0037F" stroke="#F0037F" stroke-width="3.5717" stroke-miterlimit="3.8637" points="2784.18,193.663 
		2782.95,195.451 2788.235,193.988 2783.135,191.483 	"/>
	<polygon fill="#F0037F" stroke="#F0037F" stroke-width="3.5717" stroke-miterlimit="3.8637" points="2783.41,272.977 
		2784.781,271.294 2779.394,272.329 2784.277,275.234 	"/>
	
		<path fill="none" stroke="#F0037F" stroke-width="3.5717" stroke-miterlimit="3.8637" stroke-dasharray="29.7638,7.0866,4.252,7.0866" d="
		M2615.544,208.395c7.015-6.061,32.564-12.567,49.277-14.992c16.714-2.425,45.934-2.156,58.058-2.156
		c7.046,0,79.629,2.793,87.504,3.58"/>
</g>
</svg>
